{
  "OnStartSequece": [
    {
      "TaskList": [
        {
          "$type": "RPG.GameCore.LevelPerformanceInitialize",
          "PerformanceType": "D",
          "AreaPrefabPath": "Story/Discussion/Mission/1031201/DS103120128.prefab",
          "CreateCharacterList": [
            {
              "CharacterUniqueName": "W3_Male_48_C00",
              "AvatarID": "NPC_W3_Male_48",
              "AreaName": "DS103120128.prefab"
            }
          ],
          "CaptureNPCList": [],
          "HideNPC": true,
          "HideProp": true,
          "HideLocalPlayer": true
        },
        {
          "$type": "RPG.GameCore.PlayTimeline",
          "TimelineName": "Story/Discussion/Mission/1031201/DS10312012801.playable",
          "Type": "Discussion"
        },
        {
          "$type": "RPG.GameCore.PlayOptionTalk",
          "OptionList": [
            {
              "$type": "RPG.GameCore.OptionTalkInfo",
              "TalkSentenceID": 103121502,
              "OptionIconType": "ChatContinueIcon",
              "TriggerCustomString": "ALL_TALK_END"
            }
          ]
        }
      ]
    },
    {
      "TaskList": [
        {
          "$type": "RPG.GameCore.WaitCustomString",
          "CustomString": {
            "Value": "ALL_TALK_END"
          }
        },
        {
          "$type": "RPG.GameCore.EndPerformance"
        }
      ]
    },
    {
      "TaskList": [
        {
          "$type": "RPG.GameCore.WaitPerformanceEnd"
        },
        {
          "$type": "RPG.GameCore.FinishLevelGraph"
        }
      ]
    }
  ],
  "Type": "PerformanceD"
}