{
  "OnInitSequece": [],
  "OnStartSequece": [
    {
      "TaskList": [
        {
          "$type": "RPG.GameCore.LevelPerformanceInitialize",
          "PerformanceType": "D",
          "AreaPrefabPath": "Story/Discussion/Mission/8022104/DS802210401.prefab",
          "CreateCharacterList": [
            {
              "CharacterUniqueName": "BlackSwan_00_C00",
              "AvatarID": "NPC_Avatar_Lady_BlackSwan_00",
              "AreaName": "DS802210401.prefab"
            },
            {
              "CharacterUniqueName": "W3_Lady_56_C00",
              "AvatarID": "NPC_W3_Lady_56",
              "AreaName": "DS802210401.prefab"
            },
            {
              "CharacterUniqueName": "W3_MuscleMan_Micah_C00",
              "AvatarID": "NPC_Full_W3_MuscleMan_Micah",
              "AreaName": "DS802210401.prefab"
            },
            {
              "CharacterUniqueName": "Boothill_00_C00",
              "AvatarID": "NPC_Avatar_Male_Boothill_00",
              "AreaName": "DS802210401.prefab"
            },
            {
              "CharacterUniqueName": "Sparkle_00_C00",
              "AvatarID": "NPC_Avatar_Girl_Sparkle_00",
              "AreaName": "DS802210401.prefab"
            },
            {
              "CharacterUniqueName": "W3_Old_10_C00",
              "AvatarID": "NPC_W3_Old_10",
              "AreaName": "DS802210401.prefab"
            },
            {
              "CharacterUniqueName": "W3_Lady_26_C00",
              "AvatarID": "NPC_W3_Lady_26",
              "AreaName": "DS802210401.prefab"
            },
            {
              "CharacterUniqueName": "W3_Child_20_C00",
              "AvatarID": "NPC_W3_Child_20",
              "AreaName": "DS802210401.prefab"
            },
            {
              "CharacterUniqueName": "W3_Male_34_C00",
              "AvatarID": "NPC_W3_Male_34",
              "AreaName": "DS802210401.prefab"
            },
            {
              "CharacterUniqueName": "W3_Lady_29_C00",
              "AvatarID": "NPC_W3_Lady_29",
              "AreaName": "DS802210401.prefab"
            },
            {
              "CharacterUniqueName": "W3_Male_28_C00",
              "AvatarID": "NPC_W3_Male_28",
              "AreaName": "DS802210401.prefab"
            },
            {
              "CharacterUniqueName": "W3_Child_18_C00",
              "AvatarID": "NPC_W3_Child_18",
              "AreaName": "DS802210401.prefab"
            }
          ],
          "CaptureNPCList": [],
          "HideNPC": true,
          "EntityVisiableList": [],
          "HideMunicipalCrowd": false,
          "HideProp": true,
          "PropVisiableList": [],
          "HideLocalPlayer": true,
          "StreamingSourcesInBlackMask": [],
          "StreamingSourcesAfterBlackMask": [],
          "MarkStreamingItems": []
        },
        {
          "$type": "RPG.GameCore.PlayTimeline",
          "TimelineName": "Story/Discussion/Mission/8022104/DS80221040101.playable",
          "Type": "Discussion"
        },
        {
          "$type": "RPG.GameCore.EndPerformance"
        }
      ]
    },
    {
      "TaskList": [
        {
          "$type": "RPG.GameCore.WaitPerformanceEnd"
        },
        {
          "$type": "RPG.GameCore.FinishLevelGraph"
        }
      ]
    }
  ],
  "Type": "PerformanceD"
}