{
  "OnInitSequece": [],
  "OnStartSequece": [
    {
      "TaskList": [
        {
          "$type": "RPG.GameCore.LevelPerformanceInitialize",
          "PerformanceType": "D",
          "AreaPrefabPath": "Story/Discussion/Mission/8015114/DS801511404.prefab",
          "CreateCharacterList": [
            {
              "CharacterUniqueName": "W2_Child_03_C00",
              "AvatarID": "NPC_W2_Child_03",
              "AreaName": "DS801511404.prefab"
            },
            {
              "CharacterUniqueName": "W2_Child_04_C00",
              "AvatarID": "NPC_W2_Child_04",
              "AreaName": "DS801511404.prefab"
            },
            {
              "CharacterUniqueName": "Huohuo_01_C00",
              "AvatarID": "NPC_Avatar_Girl_Huohuo_01",
              "AreaName": "DS801511404.prefab"
            },
            {
              "CharacterUniqueName": "W2_Lady_69_C00",
              "AvatarID": "NPC_W2_Lady_69",
              "AreaName": "DS801511404.prefab"
            },
            {
              "CharacterUniqueName": "TailGhost_00_C00",
              "AvatarID": "NPC_Special_TailGhost_00",
              "AreaName": "DS801511404.prefab"
            },
            {
              "CharacterUniqueName": "SuiyangMiddle_00_04_C00",
              "AvatarID": "NPC_Special_SuiyangMiddle_00_04",
              "AreaName": "DS801511404.prefab"
            }
          ],
          "CaptureNPCList": [],
          "HideNPC": true,
          "EntityVisiableList": [],
          "PropVisiableList": [],
          "HideLocalPlayer": true,
          "StreamingSourcesInBlackMask": [],
          "StreamingSourcesAfterBlackMask": [],
          "MarkStreamingItems": []
        },
        {
          "$type": "RPG.GameCore.PlayTimeline",
          "TimelineName": "Story/Discussion/Mission/8015114/DS80151140401.playable",
          "Type": "Discussion"
        },
        {
          "$type": "RPG.GameCore.PlayOptionTalk",
          "OptionList": [
            {
              "$type": "RPG.GameCore.OptionTalkInfo",
              "TalkSentenceID": 815113018,
              "OptionIconType": "ChatContinueIcon",
              "TriggerCustomString": "TalkSentence_815113019"
            },
            {
              "$type": "RPG.GameCore.OptionTalkInfo",
              "TalkSentenceID": 815113020,
              "OptionIconType": "ChatContinueIcon",
              "TriggerCustomString": "TalkSentence_815113021"
            }
          ]
        }
      ]
    },
    {
      "TaskList": [
        {
          "$type": "RPG.GameCore.WaitCustomString",
          "CustomString": {
            "Value": "TalkSentence_815113019"
          }
        },
        {
          "$type": "RPG.GameCore.PlayTimeline",
          "TimelineName": "Story/Discussion/Mission/8015114/DS80151140402.playable",
          "Type": "Discussion"
        },
        {
          "$type": "RPG.GameCore.TriggerCustomString",
          "CustomString": {
            "Value": "TalkSentence_815113022"
          }
        }
      ]
    },
    {
      "TaskList": [
        {
          "$type": "RPG.GameCore.WaitCustomString",
          "CustomString": {
            "Value": "TalkSentence_815113021"
          }
        },
        {
          "$type": "RPG.GameCore.PlayTimeline",
          "TimelineName": "Story/Discussion/Mission/8015114/DS80151140403.playable",
          "Type": "Discussion"
        },
        {
          "$type": "RPG.GameCore.TriggerCustomString",
          "CustomString": {
            "Value": "TalkSentence_815113022"
          }
        }
      ]
    },
    {
      "TaskList": [
        {
          "$type": "RPG.GameCore.WaitCustomString",
          "CustomString": {
            "Value": "TalkSentence_815113022"
          }
        },
        {
          "$type": "RPG.GameCore.PlayTimeline",
          "TimelineName": "Story/Discussion/Mission/8015114/DS80151140404.playable",
          "Type": "Discussion"
        },
        {
          "$type": "RPG.GameCore.EndPerformance"
        }
      ]
    },
    {
      "TaskList": [
        {
          "$type": "RPG.GameCore.WaitPerformanceEnd"
        },
        {
          "$type": "RPG.GameCore.FinishLevelGraph"
        }
      ]
    }
  ],
  "Type": "PerformanceD"
}