{
  "OnStartSequece": [
    {
      "TaskList": [
        {
          "$type": "RPG.GameCore.LevelPerformanceInitialize",
          "PerformanceType": "D",
          "AreaPrefabPath": "Story/Discussion/Mission/1032302/DS103230203.prefab",
          "CreateCharacterList": [
            {
              "CharacterUniqueName": "Robin_00_C00",
              "AvatarID": "NPC_Avatar_Maid_Robin_00",
              "AreaName": "DS103230203.prefab"
            },
            {
              "CharacterUniqueName": "W3_Lady_27_C00",
              "AvatarID": "NPC_W3_Lady_27",
              "AreaName": "DS103230203.prefab"
            },
            {
              "CharacterUniqueName": "W3_Male_49_C00",
              "AvatarID": "NPC_W3_Male_49",
              "AreaName": "DS103230203.prefab"
            }
          ],
          "CaptureNPCList": [],
          "HideNPC": true,
          "EntityVisiableList": [],
          "HideProp": true,
          "HideLocalPlayer": true,
          "StreamingSourcesInBlackMask": [],
          "StreamingSourcesAfterBlackMask": [],
          "MarkStreamingItems": []
        },
        {
          "$type": "RPG.GameCore.PlayTimeline",
          "TimelineName": "Story/Discussion/Mission/1032302/DS10323020301.playable",
          "Type": "Discussion"
        },
        {
          "$type": "RPG.GameCore.EndPerformance"
        }
      ]
    },
    {
      "TaskList": [
        {
          "$type": "RPG.GameCore.WaitPerformanceEnd"
        },
        {
          "$type": "RPG.GameCore.FinishLevelGraph"
        }
      ]
    }
  ],
  "Type": "PerformanceD"
}