{
  "OnInitSequece": [],
  "OnStartSequece": [
    {
      "TaskList": [
        {
          "$type": "RPG.GameCore.LevelPerformanceInitialize",
          "PerformanceType": "C",
          "AreaPrefabPath": "Story/Mission/2020601/Story202060101.prefab",
          "CreateCharacterList": [
            {
              "CharacterUniqueName": "PlayerGirl_00_C00",
              "AvatarID": "NPC_Avatar_Miss_PlayerGirl_00",
              "AreaName": "Story202060101.prefab"
            },
            {
              "CharacterUniqueName": "PlayerBoy_00_C00",
              "AvatarID": "NPC_Avatar_Lad_PlayerBoy_00",
              "AreaName": "Story202060101.prefab"
            },
            {
              "CharacterUniqueName": "DanHengIL_00_C00",
              "AvatarID": "NPC_Avatar_Lad_DanHengIL_00",
              "AreaName": "Story202060101.prefab"
            },
            {
              "CharacterUniqueName": "W2_Lady_06_C00",
              "AvatarID": "NPC_W2_Lady_06",
              "AreaName": "Story202060101.prefab"
            }
          ]
        },
        {
          "$type": "RPG.GameCore.PlayTimeline",
          "TimelineName": "Story/Mission/2020601/Story20206010101.playable",
          "Type": "Story"
        },
        {
          "$type": "RPG.GameCore.PlayOptionTalk",
          "OptionList": [
            {
              "$type": "RPG.GameCore.OptionTalkInfo",
              "TalkSentenceID": 202063010,
              "OptionIconType": "ChatContinueIcon",
              "TriggerCustomString": "TalkSentence_202063014_01"
            },
            {
              "$type": "RPG.GameCore.OptionTalkInfo",
              "TalkSentenceID": 202063011,
              "OptionIconType": "ChatContinueIcon",
              "TriggerCustomString": "TalkSentence_202063014_02"
            },
            {
              "$type": "RPG.GameCore.OptionTalkInfo",
              "TalkSentenceID": 202063012,
              "OptionIconType": "ChatContinueIcon",
              "TriggerCustomString": "TalkSentence_202063013"
            }
          ]
        }
      ]
    },
    {
      "TaskList": [
        {
          "$type": "RPG.GameCore.WaitCustomString",
          "CustomString": {
            "Value": "TalkSentence_202063013"
          }
        },
        {
          "$type": "RPG.GameCore.PlayTimeline",
          "TimelineName": "Story/Mission/2020601/Story20206010102.playable",
          "Type": "Story"
        },
        {
          "$type": "RPG.GameCore.TriggerCustomString",
          "CustomString": {
            "Value": "TalkSentence_202063014"
          }
        }
      ]
    },
    {
      "TaskList": [
        {
          "$type": "RPG.GameCore.WaitCustomString",
          "CustomString": {
            "Value": "TalkSentence_202063014_01"
          }
        },
        {
          "$type": "RPG.GameCore.PlayTimeline",
          "TimelineName": "Story/Mission/2020601/Story20206010106.playable",
          "Type": "Story",
          "Parameters": []
        },
        {
          "$type": "RPG.GameCore.TriggerCustomString",
          "CustomString": {
            "Value": "TalkSentence_202063014"
          }
        }
      ]
    },
    {
      "TaskList": [
        {
          "$type": "RPG.GameCore.WaitCustomString",
          "CustomString": {
            "Value": "TalkSentence_202063014_02"
          }
        },
        {
          "$type": "RPG.GameCore.PlayTimeline",
          "TimelineName": "Story/Mission/2020601/Story20206010107.playable",
          "Type": "Story",
          "Parameters": []
        },
        {
          "$type": "RPG.GameCore.TriggerCustomString",
          "CustomString": {
            "Value": "TalkSentence_202063014"
          }
        }
      ]
    },
    {
      "TaskList": [
        {
          "$type": "RPG.GameCore.WaitCustomString",
          "CustomString": {
            "Value": "TalkSentence_202063014"
          }
        },
        {
          "$type": "RPG.GameCore.PlayTimeline",
          "TimelineName": "Story/Mission/2020601/Story20206010103.playable",
          "Type": "Story",
          "Parameters": []
        },
        {
          "$type": "RPG.GameCore.PlayOptionTalk",
          "OptionList": [
            {
              "$type": "RPG.GameCore.OptionTalkInfo",
              "TalkSentenceID": 202063018,
              "OptionIconType": "ChatContinueIcon",
              "TriggerCustomString": "TalkSentence_202063019"
            },
            {
              "$type": "RPG.GameCore.OptionTalkInfo",
              "TalkSentenceID": 202063019,
              "OptionIconType": "ChatContinueIcon",
              "TriggerCustomString": "TalkSentence_202063020"
            }
          ]
        }
      ]
    },
    {
      "TaskList": [
        {
          "$type": "RPG.GameCore.WaitCustomString",
          "CustomString": {
            "Value": "TalkSentence_202063020"
          }
        },
        {
          "$type": "RPG.GameCore.PlayTimeline",
          "TimelineName": "Story/Mission/2020601/Story20206010104.playable",
          "Type": "Story"
        },
        {
          "$type": "RPG.GameCore.TriggerCustomString",
          "CustomString": {
            "Value": "TalkSentence_202063021"
          }
        }
      ]
    },
    {
      "TaskList": [
        {
          "$type": "RPG.GameCore.WaitCustomString",
          "CustomString": {
            "Value": "TalkSentence_202063021"
          }
        },
        {
          "$type": "RPG.GameCore.PlayTimeline",
          "TimelineName": "Story/Mission/2020601/Story20206010105.playable",
          "Type": "Story",
          "Parameters": []
        },
        {
          "$type": "RPG.GameCore.EndPerformance"
        }
      ]
    },
    {
      "TaskList": [
        {
          "$type": "RPG.GameCore.WaitPerformanceEnd"
        },
        {
          "$type": "RPG.GameCore.FinishLevelGraph"
        }
      ]
    },
    {
      "TaskList": [
        {
          "$type": "RPG.GameCore.WaitCustomString",
          "CustomString": {
            "Value": "TalkSentence_202063019"
          }
        },
        {
          "$type": "RPG.GameCore.PlayTimeline",
          "TimelineName": "Story/Mission/2020601/Story20206010108.playable",
          "Type": "Story",
          "Parameters": []
        },
        {
          "$type": "RPG.GameCore.TriggerCustomString",
          "CustomString": {
            "Value": "TalkSentence_202063021"
          }
        }
      ]
    }
  ]
}