{
  "OnInitSequece": [],
  "OnStartSequece": [
    {
      "TaskList": [
        {
          "$type": "RPG.GameCore.WaitPerformanceEnd"
        },
        {
          "$type": "RPG.GameCore.FinishLevelGraph"
        }
      ]
    },
    {
      "TaskList": [
        {
          "$type": "RPG.GameCore.LevelPerformanceInitialize",
          "PerformanceType": "C",
          "AreaPrefabPath": "Story/Mission/2011401/Story201140113.prefab",
          "CreateCharacterList": [
            {
              "CharacterUniqueName": "PlayerGirl_00_C00",
              "AvatarID": "NPC_Avatar_Miss_PlayerGirl_00"
            },
            {
              "CharacterUniqueName": "PlayerBoy_00_C00",
              "AvatarID": "NPC_Avatar_Lad_PlayerBoy_00"
            },
            {
              "CharacterUniqueName": "Natasha_00_C00",
              "AvatarID": "NPC_Avatar_Lady_Natasha_00"
            }
          ],
          "HideNPC": true,
          "EntityVisiableList": [],
          "HideProp": true,
          "HideLocalPlayer": true,
          "MarkStreamingItems": []
        },
        {
          "$type": "RPG.GameCore.PlayTimeline",
          "TimelineName": "Story/Mission/2011401/Story20114011301.playable",
          "Type": "Story",
          "Parameters": []
        },
        {
          "$type": "RPG.GameCore.PlayOptionTalk",
          "OptionList": [
            {
              "$type": "RPG.GameCore.OptionTalkInfo",
              "TalkSentenceID": 201141606,
              "OptionIconType": "ChatContinueIcon",
              "TriggerCustomString": "TalkSentence_201141608"
            },
            {
              "$type": "RPG.GameCore.OptionTalkInfo",
              "TalkSentenceID": 201141607,
              "OptionIconType": "ChatContinueIcon",
              "TriggerCustomString": "TalkSentence_201141608"
            }
          ]
        }
      ]
    },
    {
      "TaskList": [
        {
          "$type": "RPG.GameCore.WaitCustomString",
          "CustomString": {
            "Value": "TalkSentence_201141608"
          }
        },
        {
          "$type": "RPG.GameCore.PlayTimeline",
          "TimelineName": "Story/Mission/2011401/Story20114011302.playable",
          "Type": "Story",
          "Parameters": []
        },
        {
          "$type": "RPG.GameCore.PlayOptionTalk",
          "OptionList": [
            {
              "$type": "RPG.GameCore.OptionTalkInfo",
              "TalkSentenceID": 201141611,
              "OptionIconType": "ChatContinueIcon",
              "TriggerCustomString": "TalkSentence_201141612"
            },
            {
              "$type": "RPG.GameCore.OptionTalkInfo",
              "TalkSentenceID": 201141613,
              "OptionIconType": "ChatContinueIcon",
              "TriggerCustomString": "TalkSentence_201141614"
            }
          ]
        }
      ]
    },
    {
      "TaskList": [
        {
          "$type": "RPG.GameCore.WaitCustomString",
          "CustomString": {
            "Value": "TalkSentence_201141612"
          }
        },
        {
          "$type": "RPG.GameCore.PlayTimeline",
          "TimelineName": "Story/Mission/2011401/Story20114011303.playable",
          "Type": "Story",
          "Parameters": []
        },
        {
          "$type": "RPG.GameCore.TriggerCustomString",
          "CustomString": {
            "Value": "TalkSentence_201141615"
          }
        }
      ]
    },
    {
      "TaskList": [
        {
          "$type": "RPG.GameCore.WaitCustomString",
          "CustomString": {
            "Value": "TalkSentence_201141614"
          }
        },
        {
          "$type": "RPG.GameCore.PlayTimeline",
          "TimelineName": "Story/Mission/2011401/Story20114011304.playable",
          "Type": "Story",
          "Parameters": []
        },
        {
          "$type": "RPG.GameCore.TriggerCustomString",
          "CustomString": {
            "Value": "TalkSentence_201141615"
          }
        }
      ]
    },
    {
      "TaskList": [
        {
          "$type": "RPG.GameCore.WaitCustomString",
          "CustomString": {
            "Value": "TalkSentence_201141615"
          }
        },
        {
          "$type": "RPG.GameCore.PlayTimeline",
          "TimelineName": "Story/Mission/2011401/Story20114011305.playable",
          "Type": "Story",
          "Parameters": []
        },
        {
          "$type": "RPG.GameCore.PlayOptionTalk",
          "OptionList": [
            {
              "$type": "RPG.GameCore.OptionTalkInfo",
              "TalkSentenceID": 201141618,
              "OptionIconType": "ChatContinueIcon",
              "TriggerCustomString": "TalkSentence_201141619"
            },
            {
              "$type": "RPG.GameCore.OptionTalkInfo",
              "TalkSentenceID": 201141620,
              "OptionIconType": "ChatContinueIcon",
              "TriggerCustomString": "TalkSentence_201141621"
            }
          ]
        }
      ]
    },
    {
      "TaskList": [
        {
          "$type": "RPG.GameCore.WaitCustomString",
          "CustomString": {
            "Value": "TalkSentence_201141619"
          }
        },
        {
          "$type": "RPG.GameCore.PlayTimeline",
          "TimelineName": "Story/Mission/2011401/Story20114011306.playable",
          "Type": "Story",
          "Parameters": []
        },
        {
          "$type": "RPG.GameCore.TriggerCustomString",
          "CustomString": {
            "Value": "TalkSentence_201141622"
          }
        }
      ]
    },
    {
      "TaskList": [
        {
          "$type": "RPG.GameCore.WaitCustomString",
          "CustomString": {
            "Value": "TalkSentence_201141621"
          }
        },
        {
          "$type": "RPG.GameCore.PlayTimeline",
          "TimelineName": "Story/Mission/2011401/Story20114011307.playable",
          "Type": "Story",
          "Parameters": []
        },
        {
          "$type": "RPG.GameCore.TriggerCustomString",
          "CustomString": {
            "Value": "TalkSentence_201141622"
          }
        }
      ]
    },
    {
      "TaskList": [
        {
          "$type": "RPG.GameCore.WaitCustomString",
          "CustomString": {
            "Value": "TalkSentence_201141622"
          }
        },
        {
          "$type": "RPG.GameCore.PlayTimeline",
          "TimelineName": "Story/Mission/2011401/Story20114011308.playable",
          "Type": "Story",
          "Parameters": []
        },
        {
          "$type": "RPG.GameCore.PlayOptionTalk",
          "OptionList": [
            {
              "$type": "RPG.GameCore.OptionTalkInfo",
              "TalkSentenceID": 201141624,
              "OptionIconType": "ChatContinueIcon",
              "TriggerCustomString": "TalkSentence_201141625"
            }
          ]
        }
      ]
    },
    {
      "TaskList": [
        {
          "$type": "RPG.GameCore.WaitCustomString",
          "CustomString": {
            "Value": "TalkSentence_201141625"
          }
        },
        {
          "$type": "RPG.GameCore.PlayTimeline",
          "TimelineName": "Story/Mission/2011401/Story20114011309.playable",
          "Type": "Story",
          "Parameters": []
        },
        {
          "$type": "RPG.GameCore.EndPerformance"
        }
      ]
    }
  ]
}