{
  "OnInitSequece": [],
  "OnStartSequece": [
    {
      "TaskList": [
        {
          "$type": "RPG.GameCore.LevelPerformanceInitialize",
          "PerformanceType": "D",
          "AreaPrefabPath": "Story/Discussion/Mission/8021106/DS802110610.prefab",
          "CreateCharacterList": [
            {
              "CharacterUniqueName": "PlayerBoy_00_C00",
              "AvatarID": "NPC_Avatar_Lad_PlayerBoy_00",
              "AreaName": "DS802110610.prefab"
            },
            {
              "CharacterUniqueName": "PlayerGirl_00_C00",
              "AvatarID": "NPC_Avatar_Miss_PlayerGirl_00",
              "AreaName": "DS802110610.prefab"
            },
            {
              "CharacterUniqueName": "W2_Beast01_03_C00",
              "AvatarID": "NPC_Monster_W2_Beast01_03",
              "AreaName": "DS802110610.prefab"
            },
            {
              "CharacterUniqueName": "W3_Male_48_C00",
              "AvatarID": "NPC_W3_Male_48",
              "AreaName": "DS802110610.prefab"
            },
            {
              "CharacterUniqueName": "W3_Male_38_C00",
              "AvatarID": "NPC_W3_Male_38",
              "AreaName": "DS802110610.prefab"
            },
            {
              "CharacterUniqueName": "W3_Male_26_C00",
              "AvatarID": "NPC_W3_Male_26",
              "AreaName": "DS802110610.prefab"
            },
            {
              "CharacterUniqueName": "W2_Mecha01_02_C00",
              "AvatarID": "NPC_Monster_W2_Mecha01_02",
              "AreaName": "DS802110610.prefab"
            },
            {
              "CharacterUniqueName": "W2_Mecha01_02_C01",
              "AvatarID": "NPC_Monster_W2_Mecha01_02",
              "AreaName": "DS802110610.prefab"
            }
          ],
          "CaptureNPCList": [],
          "HideNPC": true,
          "EntityVisiableList": [],
          "HideProp": true,
          "HideLocalPlayer": true,
          "StreamingSourcesInBlackMask": [],
          "StreamingSourcesAfterBlackMask": [],
          "MarkStreamingItems": []
        },
        {
          "$type": "RPG.GameCore.PerformanceTransition",
          "SwitchInTime": 0,
          "CreateNpcList": [],
          "CaptureNpcList": [],
          "DestroyNpcList": [],
          "CreateProp": {
            "TaskEnabled": false
          },
          "DestroyProp": {
            "TargetType": {
              "$type": "RPG.GameCore.TargetFetchAdvPropEx"
            },
            "TaskEnabled": false
          },
          "AdvCreateGroupEntity": {
            "TaskEnabled": false
          },
          "AdvDestroyGroupEntity": {
            "InstanceIDList": [],
            "TaskEnabled": false
          },
          "ActiveVirtualCamera": {
            "TaskEnabled": false
          },
          "ActiveTemplateVirtualCamera": {
            "TaskEnabled": false
          },
          "SwitchCharacterAnchor": {
            "TaskEnabled": false
          },
          "AdvNpcFaceToPlayer": {
            "SteerImmediately": true,
            "FinishImmadiate": true,
            "TaskEnabled": false
          }
        },
        {
          "$type": "RPG.GameCore.PlayTimeline",
          "TimelineName": "Story/Discussion/Mission/8021106/DS80211061001.playable",
          "Type": "Discussion"
        },
        {
          "$type": "RPG.GameCore.PlayOptionTalk",
          "OptionList": [
            {
              "$type": "RPG.GameCore.OptionTalkInfo",
              "TalkSentenceID": 802121902,
              "OptionIconType": "ChatContinueIcon",
              "TriggerCustomString": "TalkSentence_802121904"
            },
            {
              "$type": "RPG.GameCore.OptionTalkInfo",
              "TalkSentenceID": 802121903,
              "OptionIconType": "ChatContinueIcon",
              "TriggerCustomString": "TalkSentence_802121904"
            }
          ]
        }
      ]
    },
    {
      "TaskList": [
        {
          "$type": "RPG.GameCore.WaitCustomString",
          "CustomString": {
            "Value": "TalkSentence_802121904"
          }
        },
        {
          "$type": "RPG.GameCore.PlayTimeline",
          "TimelineName": "Story/Discussion/Mission/8021106/DS80211061002.playable",
          "Type": "Discussion"
        },
        {
          "$type": "RPG.GameCore.PerformanceTransition",
          "CreateNpcList": [],
          "CaptureNpcList": [],
          "DestroyNpcList": [],
          "CreateProp": {
            "TaskEnabled": false
          },
          "DestroyProp": {
            "TargetType": {
              "$type": "RPG.GameCore.TargetFetchAdvPropEx"
            },
            "TaskEnabled": false
          },
          "AdvCreateGroupEntity": {
            "TaskEnabled": false
          },
          "AdvDestroyGroupEntity": {
            "InstanceIDList": [],
            "TaskEnabled": false
          },
          "ActiveVirtualCamera": {
            "TaskEnabled": false
          },
          "ActiveTemplateVirtualCamera": {
            "TaskEnabled": false
          },
          "SwitchCharacterAnchor": {
            "TaskEnabled": false
          },
          "AdvNpcFaceToPlayer": {
            "SteerImmediately": true,
            "FinishImmadiate": true,
            "TaskEnabled": false
          }
        },
        {
          "$type": "RPG.GameCore.EndPerformance"
        }
      ]
    },
    {
      "TaskList": [
        {
          "$type": "RPG.GameCore.WaitPerformanceEnd"
        },
        {
          "$type": "RPG.GameCore.FinishLevelGraph"
        }
      ]
    }
  ],
  "Type": "PerformanceD"
}