{
  "OnStartSequece": [
    {
      "TaskList": [
        {
          "$type": "RPG.GameCore.LevelPerformanceInitialize",
          "PerformanceType": "C",
          "AreaPrefabPath": "Story/Mission/1032301/Story103230103.prefab",
          "CreateCharacterList": [
            {
              "CharacterUniqueName": "Acheron_00_C00",
              "AvatarID": "NPC_Avatar_Lady_Acheron_00",
              "AreaName": "Story103230103.prefab"
            },
            {
              "CharacterUniqueName": "W3_Child_15_C00",
              "AvatarID": "NPC_W3_Child_15",
              "AreaName": "Story103230103.prefab"
            },
            {
              "CharacterUniqueName": "W3_Male_37_C00",
              "AvatarID": "NPC_W3_Male_37",
              "AreaName": "Story103230103.prefab"
            },
            {
              "CharacterUniqueName": "W3_Old_11_C00",
              "AvatarID": "NPC_W3_Old_11",
              "AreaName": "Story103230103.prefab"
            },
            {
              "CharacterUniqueName": "W3_Male_24_C00",
              "AvatarID": "NPC_W3_Male_24",
              "AreaName": "Story103230103.prefab"
            },
            {
              "CharacterUniqueName": "W3_Lady_42_C00",
              "AvatarID": "NPC_W3_Lady_42",
              "AreaName": "Story103230103.prefab"
            },
            {
              "CharacterUniqueName": "Special_SundaysServant_00_C00",
              "AvatarID": "NPC_Special_SundaysServant_00",
              "AreaName": "Story103230103.prefab"
            },
            {
              "CharacterUniqueName": "W3_Lady_26_C00",
              "AvatarID": "NPC_W3_Lady_26",
              "AreaName": "Story103230103.prefab"
            },
            {
              "CharacterUniqueName": "W3_Lady_35_C00",
              "AvatarID": "NPC_W3_Lady_35",
              "AreaName": "Story103230103.prefab"
            },
            {
              "CharacterUniqueName": "W3_Male_22_C00",
              "AvatarID": "NPC_W3_Male_22",
              "AreaName": "Story103230103.prefab"
            },
            {
              "CharacterUniqueName": "W3_Male_23_C00",
              "AvatarID": "NPC_W3_Male_23",
              "AreaName": "Story103230103.prefab"
            },
            {
              "CharacterUniqueName": "W3_Male_25_C00",
              "AvatarID": "NPC_W3_Male_25",
              "AreaName": "Story103230103.prefab"
            },
            {
              "CharacterUniqueName": "W3_Male_26_C00",
              "AvatarID": "NPC_W3_Male_26",
              "AreaName": "Story103230103.prefab"
            },
            {
              "CharacterUniqueName": "W3_Lady_28_C00",
              "AvatarID": "NPC_W3_Lady_28",
              "AreaName": "Story103230103.prefab"
            }
          ],
          "CaptureNPCList": [],
          "EntityVisiableList": [],
          "StreamingSourcesInBlackMask": [],
          "StreamingSourcesAfterBlackMask": [],
          "MarkStreamingItems": []
        },
        {
          "$type": "RPG.GameCore.PlayTimeline",
          "TimelineName": "Story/Mission/1032301/Story10323010301.playable",
          "Type": "Story"
        },
        {
          "$type": "RPG.GameCore.EndPerformance"
        }
      ]
    },
    {
      "TaskList": [
        {
          "$type": "RPG.GameCore.WaitPerformanceEnd"
        },
        {
          "$type": "RPG.GameCore.FinishLevelGraph"
        }
      ]
    }
  ]
}