{
  "OnInitSequece": [],
  "OnStartSequece": [
    {
      "TaskList": [
        {
          "$type": "RPG.GameCore.LevelPerformanceInitialize",
          "PerformanceType": "C",
          "AreaPrefabPath": "Story/Mission/2010203/Story201020316.prefab",
          "CreateCharacterList": [
            {
              "CharacterUniqueName": "PlayerGirl_00_C00",
              "AvatarID": "NPC_Avatar_Miss_PlayerGirl_00",
              "AreaName": "Story201020316.prefab"
            },
            {
              "CharacterUniqueName": "PlayerBoy_00_C00",
              "AvatarID": "NPC_Avatar_Lad_PlayerBoy_00",
              "AreaName": "Story201020316.prefab"
            },
            {
              "CharacterUniqueName": "Bronya_00_C00",
              "AvatarID": "NPC_Avatar_Maid_Bronya_00",
              "AreaName": "Story201020316.prefab"
            },
            {
              "CharacterUniqueName": "Himeko_00_C00",
              "AvatarID": "NPC_Avatar_Lady_Himeko_00",
              "AreaName": "Story201020316.prefab"
            },
            {
              "CharacterUniqueName": "Mar_7th_00_C00",
              "AvatarID": "NPC_Avatar_Maid_Mar_7th_00",
              "AreaName": "Story201020316.prefab"
            },
            {
              "CharacterUniqueName": "W1_Lady_29_C00",
              "AvatarID": "NPC_W1_Lady_29",
              "AreaName": "Story201020316.prefab"
            },
            {
              "CharacterUniqueName": "W1_Lady_28_C00",
              "AvatarID": "NPC_W1_Lady_28",
              "AreaName": "Story201020316.prefab"
            },
            {
              "CharacterUniqueName": "W1_Male_24_C00",
              "AvatarID": "NPC_W1_Male_24",
              "AreaName": "Story201020316.prefab"
            },
            {
              "CharacterUniqueName": "W1_Male_26_C00",
              "AvatarID": "NPC_W1_Male_26",
              "AreaName": "Story201020316.prefab"
            },
            {
              "CharacterUniqueName": "W1_Male_25_C00",
              "AvatarID": "NPC_W1_Male_25",
              "AreaName": "Story201020316.prefab"
            },
            {
              "CharacterUniqueName": "W1_Old_13_C00",
              "AvatarID": "NPC_W1_Old_13",
              "AreaName": "Story201020316.prefab"
            },
            {
              "CharacterUniqueName": "W1_Old_12_C00",
              "AvatarID": "NPC_W1_Old_12",
              "AreaName": "Story201020316.prefab"
            },
            {
              "CharacterUniqueName": "W1_Old_06_C00",
              "AvatarID": "NPC_W1_Old_06",
              "AreaName": "Story201020316.prefab"
            },
            {
              "CharacterUniqueName": "W1_Soldier01_00_C00",
              "AvatarID": "NPC_Monster_W1_Soldier01_00",
              "AreaName": "Story201020316.prefab"
            },
            {
              "CharacterUniqueName": "W1_Soldier01_00_C01",
              "AvatarID": "NPC_Monster_W1_Soldier01_00",
              "AreaName": "Story201020316.prefab"
            }
          ],
          "CaptureNPCList": [],
          "EntityVisiableList": [],
          "StreamingSourcesInBlackMask": [],
          "StreamingSourcesAfterBlackMask": [],
          "MarkStreamingItems": []
        },
        {
          "$type": "RPG.GameCore.PlayTimeline",
          "TimelineName": "Story/Mission/2010203/Story20102031601.playable",
          "Type": "Story"
        },
        {
          "$type": "RPG.GameCore.PlayOptionTalk",
          "OptionList": [
            {
              "$type": "RPG.GameCore.OptionTalkInfo",
              "TalkSentenceID": 201021307,
              "OptionIconType": "ChatContinueIcon",
              "TriggerCustomString": "TalkSentence_201021308"
            },
            {
              "$type": "RPG.GameCore.OptionTalkInfo",
              "TalkSentenceID": 201021310,
              "OptionIconType": "ChatContinueIcon",
              "TriggerCustomString": "TalkSentence_201021311"
            }
          ]
        }
      ]
    },
    {
      "TaskList": [
        {
          "$type": "RPG.GameCore.WaitCustomString",
          "CustomString": {
            "Value": "TalkSentence_201021308"
          }
        },
        {
          "$type": "RPG.GameCore.PlayTimeline",
          "TimelineName": "Story/Mission/2010203/Story20102031602.playable",
          "Type": "Story"
        },
        {
          "$type": "RPG.GameCore.TriggerCustomString",
          "CustomString": {
            "Value": "TalkSentence_201021313"
          }
        }
      ]
    },
    {
      "TaskList": [
        {
          "$type": "RPG.GameCore.WaitCustomString",
          "CustomString": {
            "Value": "TalkSentence_201021311"
          }
        },
        {
          "$type": "RPG.GameCore.PlayTimeline",
          "TimelineName": "Story/Mission/2010203/Story20102031603.playable",
          "Type": "Story"
        },
        {
          "$type": "RPG.GameCore.TriggerCustomString",
          "CustomString": {
            "Value": "TalkSentence_201021313"
          }
        }
      ]
    },
    {
      "TaskList": [
        {
          "$type": "RPG.GameCore.WaitCustomString",
          "CustomString": {
            "Value": "TalkSentence_201021313"
          }
        },
        {
          "$type": "RPG.GameCore.PlayTimeline",
          "TimelineName": "Story/Mission/2010203/Story20102031604.playable",
          "Type": "Story"
        },
        {
          "$type": "RPG.GameCore.EndPerformance"
        }
      ]
    },
    {
      "TaskList": [
        {
          "$type": "RPG.GameCore.WaitPerformanceEnd"
        },
        {
          "$type": "RPG.GameCore.FinishLevelGraph"
        }
      ]
    }
  ]
}