{
  "OnInitSequece": [],
  "OnStartSequece": [
    {
      "TaskList": [
        {
          "$type": "RPG.GameCore.LevelPerformanceInitialize",
          "PerformanceType": "C",
          "AreaPrefabPath": "Story/Mission/2010201/Story201020107.prefab",
          "CreateCharacterList": [
            {
              "CharacterUniqueName": "PlayerGirl_00_C00",
              "AvatarID": "NPC_Avatar_Miss_PlayerGirl_00",
              "AreaName": "Story201020107.prefab"
            },
            {
              "CharacterUniqueName": "PlayerBoy_00_C00",
              "AvatarID": "NPC_Avatar_Lad_PlayerBoy_00",
              "AreaName": "Story201020107.prefab"
            },
            {
              "CharacterUniqueName": "Topaz_00_C00",
              "AvatarID": "NPC_Avatar_Maid_Topaz_00",
              "AreaName": "Story201020107.prefab"
            },
            {
              "CharacterUniqueName": "Zhangzhang_00_C00",
              "AvatarID": "NPC_Special_Zhangzhang_00",
              "AreaName": "Story201020107.prefab"
            },
            {
              "CharacterUniqueName": "Mar_7th_01_C00",
              "AvatarID": "NPC_Avatar_Maid_Mar_7th_01",
              "AreaName": "Story201020107.prefab"
            },
            {
              "CharacterUniqueName": "W1_Soldier01_04_C00",
              "AvatarID": "NPC_Monster_W1_Soldier01_04",
              "AreaName": "Story201020107.prefab"
            },
            {
              "CharacterUniqueName": "W1_Soldier01_04_C01",
              "AvatarID": "NPC_Monster_W1_Soldier01_04",
              "AreaName": "Story201020107.prefab"
            }
          ],
          "CaptureNPCList": [],
          "EntityVisiableList": [],
          "PropVisiableList": [],
          "StreamingSourcesInBlackMask": [],
          "StreamingSourcesAfterBlackMask": [
            "_Point01",
            "_Point02",
            "_Point03"
          ],
          "MarkStreamingItems": []
        },
        {
          "$type": "RPG.GameCore.PlayTimeline",
          "TimelineName": "Story/Mission/2010201/Story20102010701.playable",
          "Type": "Story",
          "Parameters": []
        },
        {
          "$type": "RPG.GameCore.PlayOptionTalk",
          "OptionList": [
            {
              "$type": "RPG.GameCore.OptionTalkInfo",
              "TalkSentenceID": 201020535,
              "OptionIconType": "ChatContinueIcon",
              "TriggerCustomString": "TalkSentence_201020536 "
            }
          ]
        }
      ]
    },
    {
      "TaskList": [
        {
          "$type": "RPG.GameCore.WaitCustomString",
          "CustomString": {
            "Value": "TalkSentence_201020546"
          }
        },
        {
          "$type": "RPG.GameCore.PlayTimeline",
          "TimelineName": "Story/Mission/2010201/Story20102010702.playable",
          "Type": "Story",
          "Parameters": []
        },
        {
          "$type": "RPG.GameCore.TriggerCustomString",
          "CustomString": {
            "Value": "TalkSentence_201020549"
          }
        }
      ]
    },
    {
      "TaskList": [
        {
          "$type": "RPG.GameCore.WaitCustomString",
          "CustomString": {
            "Value": "TalkSentence_201020548"
          }
        },
        {
          "$type": "RPG.GameCore.PlayTimeline",
          "TimelineName": "Story/Mission/2010201/Story20102010703.playable",
          "Type": "Story"
        },
        {
          "$type": "RPG.GameCore.TriggerCustomString",
          "CustomString": {
            "Value": "TalkSentence_201020549"
          }
        }
      ]
    },
    {
      "TaskList": [
        {
          "$type": "RPG.GameCore.WaitCustomString",
          "CustomString": {
            "Value": "TalkSentence_201020549"
          }
        },
        {
          "$type": "RPG.GameCore.PlayTimeline",
          "TimelineName": "Story/Mission/2010201/Story20102010704.playable",
          "Type": "Story"
        },
        {
          "$type": "RPG.GameCore.PlayOptionTalk",
          "OptionList": [
            {
              "$type": "RPG.GameCore.OptionTalkInfo",
              "TalkSentenceID": 201020560,
              "OptionIconType": "ChatContinueIcon",
              "TriggerCustomString": "TalkSentence_201020561"
            },
            {
              "$type": "RPG.GameCore.OptionTalkInfo",
              "TalkSentenceID": 201020562,
              "OptionIconType": "ChatContinueIcon",
              "TriggerCustomString": "TalkSentence_201020563"
            }
          ]
        }
      ]
    },
    {
      "TaskList": [
        {
          "$type": "RPG.GameCore.WaitCustomString",
          "CustomString": {
            "Value": "TalkSentence_201020561"
          }
        },
        {
          "$type": "RPG.GameCore.PlayTimeline",
          "TimelineName": "Story/Mission/2010201/Story20102010705.playable",
          "Type": "Story"
        },
        {
          "$type": "RPG.GameCore.TriggerCustomString",
          "CustomString": {
            "Value": "TalkSentence_201020564"
          }
        }
      ]
    },
    {
      "TaskList": [
        {
          "$type": "RPG.GameCore.WaitCustomString",
          "CustomString": {
            "Value": "TalkSentence_201020563"
          }
        },
        {
          "$type": "RPG.GameCore.PlayTimeline",
          "TimelineName": "Story/Mission/2010201/Story20102010706.playable",
          "Type": "Story"
        },
        {
          "$type": "RPG.GameCore.TriggerCustomString",
          "CustomString": {
            "Value": "TalkSentence_201020564"
          }
        }
      ]
    },
    {
      "TaskList": [
        {
          "$type": "RPG.GameCore.WaitCustomString",
          "CustomString": {
            "Value": "TalkSentence_201020564"
          }
        },
        {
          "$type": "RPG.GameCore.PlayTimeline",
          "TimelineName": "Story/Mission/2010201/Story20102010707.playable",
          "Type": "Story"
        },
        {
          "$type": "RPG.GameCore.EndPerformance"
        }
      ]
    },
    {
      "TaskList": [
        {
          "$type": "RPG.GameCore.WaitPerformanceEnd"
        },
        {
          "$type": "RPG.GameCore.FinishLevelGraph"
        }
      ]
    },
    {
      "TaskList": [
        {
          "$type": "RPG.GameCore.WaitCustomString",
          "CustomString": {
            "Value": "TalkSentence_201020536 "
          }
        },
        {
          "$type": "RPG.GameCore.PlayTimeline",
          "TimelineName": "Story/Mission/2010201/Story20102010708.playable",
          "Type": "Story",
          "Parameters": []
        },
        {
          "$type": "RPG.GameCore.PlayOptionTalk",
          "OptionList": [
            {
              "$type": "RPG.GameCore.OptionTalkInfo",
              "TalkSentenceID": 201020545,
              "OptionIconType": "ChatContinueIcon",
              "TriggerCustomString": "TalkSentence_201020546"
            },
            {
              "$type": "RPG.GameCore.OptionTalkInfo",
              "TalkSentenceID": 201020547,
              "OptionIconType": "ChatContinueIcon",
              "TriggerCustomString": "TalkSentence_201020548"
            }
          ]
        }
      ]
    }
  ]
}