{
  "OnInitSequece": [],
  "OnStartSequece": [
    {
      "TaskList": [
        {
          "$type": "RPG.GameCore.LevelPerformanceInitialize",
          "PerformanceType": "C",
          "AreaPrefabPath": "Story/Mission/8003211/Story800321107.prefab",
          "CreateCharacterList": [
            {
              "CharacterUniqueName": "Sushang_00_C00",
              "AvatarID": "NPC_Avatar_Maid_Sushang_00",
              "AreaName": "Story800321107.prefab"
            },
            {
              "CharacterUniqueName": "W2_Lady_63_C00",
              "AvatarID": "NPC_W2_Lady_63",
              "AreaName": "Story800321107.prefab"
            },
            {
              "CharacterUniqueName": "Yukong_00_C00",
              "AvatarID": "NPC_Avatar_Lady_Yukong_00",
              "AreaName": "Story800321107.prefab"
            },
            {
              "CharacterUniqueName": "W2_Male_70_C00",
              "AvatarID": "NPC_W2_Male_70",
              "AreaName": "Story800321107.prefab"
            },
            {
              "CharacterUniqueName": "W2_Male_11_C00",
              "AvatarID": "NPC_W2_Male_11",
              "AreaName": "Story800321107.prefab"
            },
            {
              "CharacterUniqueName": "W2_Lady_11_C00",
              "AvatarID": "NPC_W2_Lady_11",
              "AreaName": "Story800321107.prefab"
            },
            {
              "CharacterUniqueName": "PlayerGirl_00_C00",
              "AvatarID": "NPC_Avatar_Miss_PlayerGirl_00",
              "AreaName": "Story800321107.prefab"
            },
            {
              "CharacterUniqueName": "PlayerBoy_00_C00",
              "AvatarID": "NPC_Avatar_Lad_PlayerBoy_00",
              "AreaName": "Story800321107.prefab"
            },
            {
              "CharacterUniqueName": "Prop_W2_DiHengSi_Table_01",
              "AvatarID": "Prop_W2_DiHengSi_Table_01",
              "AreaName": "Story800321107.prefab"
            },
            {
              "CharacterUniqueName": "Chap02_Prop_TeaSet_01",
              "AvatarID": "Chap02_Prop_TeaSet_01",
              "AreaName": "Story800321107.prefab"
            },
            {
              "CharacterUniqueName": "Chap02_Prop_Readings_03",
              "AvatarID": "Chap02_Prop_Readings_03",
              "AreaName": "Story800321107.prefab"
            },
            {
              "CharacterUniqueName": "Chap02_Prop_Readings_01",
              "AvatarID": "Chap02_Prop_Readings_01",
              "AreaName": "Story800321107.prefab"
            },
            {
              "CharacterUniqueName": "Chap02_Prop_TableProp_02",
              "AvatarID": "Chap02_Prop_TableProp_02",
              "AreaName": "Story800321107.prefab"
            }
          ],
          "CaptureNPCList": []
        },
        {
          "$type": "RPG.GameCore.PlayTimeline",
          "TimelineName": "Story/Mission/8003211/Story80032110701.playable",
          "Type": "Story"
        },
        {
          "$type": "RPG.GameCore.PlayOptionTalk",
          "OptionList": [
            {
              "$type": "RPG.GameCore.OptionTalkInfo",
              "TalkSentenceID": 800322667,
              "OptionIconType": "ChatContinueIcon",
              "TriggerCustomString": "TalkSentence_800322668"
            },
            {
              "$type": "RPG.GameCore.OptionTalkInfo",
              "TalkSentenceID": 800322670,
              "OptionIconType": "ChatContinueIcon",
              "TriggerCustomString": "TalkSentence_800322671"
            }
          ]
        }
      ]
    },
    {
      "TaskList": [
        {
          "$type": "RPG.GameCore.WaitCustomString",
          "CustomString": {
            "Value": "TalkSentence_800322668"
          }
        },
        {
          "$type": "RPG.GameCore.PlayTimeline",
          "TimelineName": "Story/Mission/8003211/Story80032110702.playable",
          "Type": "Story"
        },
        {
          "$type": "RPG.GameCore.TriggerCustomString",
          "CustomString": {
            "Value": "TalkSentence_800322673"
          }
        }
      ]
    },
    {
      "TaskList": [
        {
          "$type": "RPG.GameCore.WaitCustomString",
          "CustomString": {
            "Value": "TalkSentence_800322671"
          }
        },
        {
          "$type": "RPG.GameCore.PlayTimeline",
          "TimelineName": "Story/Mission/8003211/Story80032110703.playable",
          "Type": "Story"
        },
        {
          "$type": "RPG.GameCore.TriggerCustomString",
          "CustomString": {
            "Value": "TalkSentence_800322673"
          }
        }
      ]
    },
    {
      "TaskList": [
        {
          "$type": "RPG.GameCore.WaitCustomString",
          "CustomString": {
            "Value": "TalkSentence_800322673"
          }
        },
        {
          "$type": "RPG.GameCore.PlayTimeline",
          "TimelineName": "Story/Mission/8003211/Story80032110704.playable",
          "Type": "Story"
        },
        {
          "$type": "RPG.GameCore.EndPerformance"
        }
      ]
    },
    {
      "TaskList": [
        {
          "$type": "RPG.GameCore.WaitPerformanceEnd"
        },
        {
          "$type": "RPG.GameCore.FinishLevelGraph"
        }
      ]
    }
  ]
}