{
  "OnInitSequece": [],
  "OnStartSequece": [
    {
      "TaskList": [
        {
          "$type": "RPG.GameCore.LevelPerformanceInitialize",
          "PerformanceType": "D",
          "AreaPrefabPath": "Story/Discussion/Mission/1030302/DS103030202.prefab",
          "CreateCharacterList": [
            {
              "CharacterUniqueName": "Firefly_00_C00",
              "AvatarID": "NPC_Avatar_Maid_Firefly_00",
              "AreaName": "DS103030202.prefab"
            },
            {
              "CharacterUniqueName": "PlayerGirl_00_C00",
              "AvatarID": "NPC_Avatar_Miss_PlayerGirl_00",
              "AreaName": "DS103030202.prefab"
            },
            {
              "CharacterUniqueName": "PlayerBoy_00_C00",
              "AvatarID": "NPC_Avatar_Lad_PlayerBoy_00",
              "AreaName": "DS103030202.prefab"
            },
            {
              "CharacterUniqueName": "W3_Male_16_C00",
              "AvatarID": "NPC_W3_Male_16",
              "AreaName": "DS103030202.prefab"
            }
          ],
          "CaptureNPCList": [],
          "HideNPC": true,
          "EntityVisiableList": [],
          "HideProp": true,
          "HideLocalPlayer": true,
          "StreamingSourcesInBlackMask": [],
          "StreamingSourcesAfterBlackMask": [],
          "MarkStreamingItems": []
        },
        {
          "$type": "RPG.GameCore.PlayTimeline",
          "TimelineName": "Story/Discussion/Mission/1030302/DS10303020201.playable",
          "Type": "Discussion"
        },
        {
          "$type": "RPG.GameCore.PlayOptionTalk",
          "OptionList": [
            {
              "$type": "RPG.GameCore.OptionTalkInfo",
              "TalkSentenceID": 103031105,
              "OptionIconType": "ChatContinueIcon",
              "TriggerCustomString": "TalkSentence_103031106"
            },
            {
              "$type": "RPG.GameCore.OptionTalkInfo",
              "TalkSentenceID": 103031107,
              "OptionIconType": "ChatContinueIcon",
              "TriggerCustomString": "TalkSentence_103031108"
            },
            {
              "$type": "RPG.GameCore.OptionTalkInfo",
              "TalkSentenceID": 103031109,
              "OptionIconType": "ChatContinueIcon",
              "TriggerCustomString": "TalkSentence_103031110"
            }
          ]
        }
      ]
    },
    {
      "TaskList": [
        {
          "$type": "RPG.GameCore.WaitCustomString",
          "CustomString": {
            "Value": "TalkSentence_103031106"
          }
        },
        {
          "$type": "RPG.GameCore.PlayTimeline",
          "TimelineName": "Story/Discussion/Mission/1030302/DS10303020202.playable",
          "Type": "Discussion"
        },
        {
          "$type": "RPG.GameCore.TriggerCustomString",
          "CustomString": {
            "Value": "ALL_TALK_END"
          }
        }
      ]
    },
    {
      "TaskList": [
        {
          "$type": "RPG.GameCore.WaitCustomString",
          "CustomString": {
            "Value": "TalkSentence_103031108"
          }
        },
        {
          "$type": "RPG.GameCore.PlayTimeline",
          "TimelineName": "Story/Discussion/Mission/1030302/DS10303020203.playable",
          "Type": "Discussion"
        },
        {
          "$type": "RPG.GameCore.TriggerCustomString",
          "CustomString": {
            "Value": "ALL_TALK_END"
          }
        }
      ]
    },
    {
      "TaskList": [
        {
          "$type": "RPG.GameCore.WaitCustomString",
          "CustomString": {
            "Value": "TalkSentence_103031110"
          }
        },
        {
          "$type": "RPG.GameCore.PlayTimeline",
          "TimelineName": "Story/Discussion/Mission/1030302/DS10303020204.playable",
          "Type": "Discussion"
        },
        {
          "$type": "RPG.GameCore.TriggerCustomString",
          "CustomString": {
            "Value": "ALL_TALK_END"
          }
        }
      ]
    },
    {
      "TaskList": [
        {
          "$type": "RPG.GameCore.WaitCustomString",
          "CustomString": {
            "Value": "ALL_TALK_END"
          }
        },
        {
          "$type": "RPG.GameCore.EndPerformance"
        }
      ]
    },
    {
      "TaskList": [
        {
          "$type": "RPG.GameCore.WaitPerformanceEnd"
        },
        {
          "$type": "RPG.GameCore.FinishLevelGraph"
        }
      ]
    }
  ],
  "Type": "PerformanceD"
}