{
  "OnStartSequece": [
    {
      "TaskList": [
        {
          "$type": "RPG.GameCore.LevelPerformanceInitialize",
          "PerformanceType": "D",
          "AreaPrefabPath": "Story/Discussion/Mission/2030401/DS203040131.prefab",
          "CreateCharacterList": [
            {
              "CharacterUniqueName": "OrigamiBird_00_C00",
              "AvatarID": "NPC_Special_OrigamiBird_00",
              "AreaName": "DS203040131.prefab"
            },
            {
              "CharacterUniqueName": "PlayerGirl_00_C00",
              "AvatarID": "NPC_Avatar_Miss_PlayerGirl_00",
              "AreaName": "DS203040131.prefab"
            },
            {
              "CharacterUniqueName": "PlayerBoy_00_C00",
              "AvatarID": "NPC_Avatar_Lad_PlayerBoy_00",
              "AreaName": "DS203040131.prefab"
            },
            {
              "CharacterUniqueName": "OrigamiBird_01_C00",
              "AvatarID": "NPC_Special_OrigamiBird_01",
              "AreaName": "DS203040131.prefab"
            },
            {
              "CharacterUniqueName": "OrigamiBird_02_C00",
              "AvatarID": "NPC_Special_OrigamiBird_02",
              "AreaName": "DS203040131.prefab"
            },
            {
              "CharacterUniqueName": "OrigamiBird_03_C00",
              "AvatarID": "NPC_Special_OrigamiBird_03",
              "AreaName": "DS203040131.prefab"
            },
            {
              "CharacterUniqueName": "OrigamiBird_04_C00",
              "AvatarID": "NPC_Special_OrigamiBird_04",
              "AreaName": "DS203040131.prefab"
            }
          ],
          "CaptureNPCList": [],
          "HideNPC": true,
          "HideProp": true,
          "HideLocalPlayer": true
        },
        {
          "$type": "RPG.GameCore.PlayTimeline",
          "TimelineName": "Story/Discussion/Mission/2030401/DS20304013101.playable",
          "Type": "Discussion"
        },
        {
          "$type": "RPG.GameCore.PlayOptionTalk",
          "OptionList": [
            {
              "$type": "RPG.GameCore.OptionTalkInfo",
              "TalkSentenceID": 230413103,
              "OptionIconType": "ChatContinueIcon",
              "TriggerCustomString": "TalkSentence_230413104"
            }
          ]
        }
      ]
    },
    {
      "TaskList": [
        {
          "$type": "RPG.GameCore.WaitCustomString",
          "CustomString": {
            "Value": "TalkSentence_230413104"
          }
        },
        {
          "$type": "RPG.GameCore.PlayTimeline",
          "TimelineName": "Story/Discussion/Mission/2030401/DS20304013102.playable",
          "Type": "Discussion"
        },
        {
          "$type": "RPG.GameCore.PlayOptionTalk",
          "OptionList": [
            {
              "$type": "RPG.GameCore.OptionTalkInfo",
              "TalkSentenceID": 230413118,
              "OptionIconType": "ChatContinueIcon",
              "TriggerCustomString": "TalkSentence_230413120"
            },
            {
              "$type": "RPG.GameCore.OptionTalkInfo",
              "TalkSentenceID": 230413119,
              "OptionIconType": "ChatContinueIcon",
              "TriggerCustomString": "TalkSentence_230413120"
            }
          ]
        }
      ]
    },
    {
      "TaskList": [
        {
          "$type": "RPG.GameCore.WaitCustomString",
          "CustomString": {
            "Value": "TalkSentence_230413120"
          }
        },
        {
          "$type": "RPG.GameCore.PlayTimeline",
          "TimelineName": "Story/Discussion/Mission/2030401/DS20304013103.playable",
          "Type": "Discussion"
        },
        {
          "$type": "RPG.GameCore.PlayOptionTalk",
          "OptionList": [
            {
              "$type": "RPG.GameCore.OptionTalkInfo",
              "TalkSentenceID": 230413122,
              "OptionIconType": "ChatContinueIcon",
              "TriggerCustomString": "TalkSentence_230413123"
            }
          ]
        }
      ]
    },
    {
      "TaskList": [
        {
          "$type": "RPG.GameCore.WaitCustomString",
          "CustomString": {
            "Value": "TalkSentence_230413123"
          }
        },
        {
          "$type": "RPG.GameCore.PlayTimeline",
          "TimelineName": "Story/Discussion/Mission/2030401/DS20304013104.playable",
          "Type": "Discussion"
        },
        {
          "$type": "RPG.GameCore.EndPerformance"
        }
      ]
    },
    {
      "TaskList": [
        {
          "$type": "RPG.GameCore.WaitPerformanceEnd"
        },
        {
          "$type": "RPG.GameCore.FinishLevelGraph"
        }
      ]
    }
  ],
  "Type": "PerformanceD"
}