{
  "OnInitSequece": [],
  "OnStartSequece": [
    {
      "TaskList": [
        {
          "$type": "RPG.GameCore.LevelPerformanceInitialize",
          "PerformanceType": "D",
          "AreaPrefabPath": "Story/Discussion/Mission/8015162/DS801516207.prefab",
          "CreateCharacterList": [
            {
              "CharacterUniqueName": "Huohuo_01_C00",
              "AvatarID": "NPC_Avatar_Girl_Huohuo_01",
              "AreaName": "DS801516207.prefab"
            },
            {
              "CharacterUniqueName": "PlayerGirl_00_C00",
              "AvatarID": "NPC_Avatar_Miss_PlayerGirl_00",
              "AreaName": "DS801516207.prefab"
            },
            {
              "CharacterUniqueName": "PlayerBoy_00_C00",
              "AvatarID": "NPC_Avatar_Lad_PlayerBoy_00",
              "AreaName": "DS801516207.prefab"
            }
          ],
          "CaptureNPCList": [],
          "HideNPC": true,
          "EntityVisiableList": [],
          "HideProp": true,
          "PropVisiableList": [],
          "HideLocalPlayer": true,
          "StreamingSourcesInBlackMask": [],
          "StreamingSourcesAfterBlackMask": [],
          "MarkStreamingItems": []
        },
        {
          "$type": "RPG.GameCore.PerformanceTransition",
          "SwitchKeepTime": 3,
          "TextEnabled": true,
          "TalkSentenceID": 815105001,
          "CreateNpcList": [],
          "CaptureNpcList": [],
          "DestroyNpcList": [],
          "CreateProp": {
            "TaskEnabled": false
          },
          "DestroyProp": {
            "TargetType": {
              "$type": "RPG.GameCore.TargetFetchAdvPropEx"
            },
            "TaskEnabled": false
          },
          "AdvCreateGroupEntity": {
            "InstanceIDList": [],
            "TaskEnabled": false
          },
          "AdvDestroyGroupEntity": {
            "TaskEnabled": false
          },
          "ActiveVirtualCamera": {
            "TaskEnabled": false
          },
          "ActiveTemplateVirtualCamera": {
            "TaskEnabled": false
          },
          "SwitchCharacterAnchor": {
            "TaskEnabled": false
          },
          "AdvNpcFaceToPlayer": {
            "SteerImmediately": true,
            "FinishImmadiate": true,
            "TaskEnabled": false
          }
        },
        {
          "$type": "RPG.GameCore.PlayTimeline",
          "TimelineName": "Story/Discussion/Mission/8015162/DS80151620701.playable",
          "Type": "Discussion"
        },
        {
          "$type": "RPG.GameCore.PlayOptionTalk",
          "OptionList": [
            {
              "$type": "RPG.GameCore.OptionTalkInfo",
              "TalkSentenceID": 815162302,
              "OptionIconType": "ChatContinueIcon",
              "TriggerCustomString": "TalkSentence_815162304"
            },
            {
              "$type": "RPG.GameCore.OptionTalkInfo",
              "TalkSentenceID": 815162303,
              "OptionIconType": "ChatContinueIcon",
              "TriggerCustomString": "TalkSentence_815162304"
            }
          ]
        }
      ]
    },
    {
      "TaskList": [
        {
          "$type": "RPG.GameCore.WaitCustomString",
          "CustomString": {
            "Value": "TalkSentence_815162304"
          }
        },
        {
          "$type": "RPG.GameCore.PlayTimeline",
          "TimelineName": "Story/Discussion/Mission/8015162/DS80151620702.playable",
          "Type": "Discussion",
          "Parameters": []
        },
        {
          "$type": "RPG.GameCore.EndPerformance"
        }
      ]
    },
    {
      "TaskList": [
        {
          "$type": "RPG.GameCore.WaitPerformanceEnd"
        },
        {
          "$type": "RPG.GameCore.FinishLevelGraph"
        }
      ]
    }
  ],
  "Type": "PerformanceD"
}