{
  "OnInitSequece": [],
  "OnStartSequece": [
    {
      "TaskList": [
        {
          "$type": "RPG.GameCore.LevelPerformanceInitialize",
          "PerformanceType": "C",
          "AreaPrefabPath": "Story/Mission/1011201/Story101120103.prefab",
          "CreateCharacterList": [
            {
              "CharacterUniqueName": "Gepard_00_C00",
              "AvatarID": "NPC_Avatar_Male_Gepard_00",
              "AreaName": "Story101120103.prefab"
            },
            {
              "CharacterUniqueName": "Serval_00_C00",
              "AvatarID": "NPC_Avatar_Lady_Serval_00",
              "AreaName": "Story101120103.prefab"
            },
            {
              "CharacterUniqueName": "PlayerBoy_00_C00",
              "AvatarID": "NPC_Avatar_Lad_PlayerBoy_00",
              "AreaName": "Story101120103.prefab"
            },
            {
              "CharacterUniqueName": "PlayerGirl_00_C00",
              "AvatarID": "NPC_Avatar_Miss_PlayerGirl_00",
              "AreaName": "Story101120103.prefab"
            },
            {
              "CharacterUniqueName": "Mar_7th_00_C00",
              "AvatarID": "NPC_Avatar_Maid_Mar_7th_00",
              "AreaName": "Story101120103.prefab"
            },
            {
              "CharacterUniqueName": "DanHeng_00_C00",
              "AvatarID": "NPC_Avatar_Lad_DanHeng_00",
              "AreaName": "Story101120103.prefab"
            },
            {
              "CharacterUniqueName": "Seele_00_C00",
              "AvatarID": "NPC_Avatar_Maid_Seele_00",
              "AreaName": "Story101120103.prefab"
            },
            {
              "CharacterUniqueName": "W1_Soldier01_00_C01",
              "AvatarID": "NPC_Monster_W1_Soldier01_00",
              "AreaName": "Story101120103.prefab"
            },
            {
              "CharacterUniqueName": "W1_Soldier01_00_C02",
              "AvatarID": "NPC_Monster_W1_Soldier01_00",
              "AreaName": "Story101120103.prefab"
            },
            {
              "CharacterUniqueName": "W1_Soldier01_00_C03",
              "AvatarID": "NPC_Monster_W1_Soldier01_00",
              "AreaName": "Story101120103.prefab"
            },
            {
              "CharacterUniqueName": "W1_Door_01",
              "AvatarID": "Prop_W1_Door_01",
              "AreaName": "Story101120103.prefab"
            }
          ],
          "EntityVisiableList": [],
          "HideProp": true,
          "PropVisiableList": [],
          "HideLocalPlayer": true,
          "MarkStreamingItems": []
        },
        {
          "$type": "RPG.GameCore.PlayTimeline",
          "TimelineName": "Story/Mission/1011201/Story10112010301.playable",
          "Type": "Story",
          "Parameters": []
        },
        {
          "$type": "RPG.GameCore.PlayOptionTalk",
          "OptionList": [
            {
              "$type": "RPG.GameCore.OptionTalkInfo",
              "TalkSentenceID": 201312415,
              "OptionIconType": "ChatContinueIcon",
              "TriggerCustomString": "TalkSentence_201312415"
            },
            {
              "$type": "RPG.GameCore.OptionTalkInfo",
              "TalkSentenceID": 201312418,
              "OptionIconType": "ChatContinueIcon",
              "TriggerCustomString": "TalkSentence_201312418"
            },
            {
              "$type": "RPG.GameCore.OptionTalkInfo",
              "TalkSentenceID": 201312419,
              "OptionIconType": "ChatContinueIcon",
              "TriggerCustomString": "TalkSentence_201312419"
            }
          ]
        }
      ]
    },
    {
      "TaskList": [
        {
          "$type": "RPG.GameCore.WaitCustomString",
          "CustomString": {
            "Value": "TalkSentence_201312415"
          }
        },
        {
          "$type": "RPG.GameCore.PlayTimeline",
          "TimelineName": "Story/Mission/1011201/Story10112010302.playable",
          "Type": "Story",
          "Parameters": []
        },
        {
          "$type": "RPG.GameCore.TriggerCustomString",
          "CustomString": {
            "Value": "TalkSentence_201312420"
          }
        }
      ]
    },
    {
      "TaskList": [
        {
          "$type": "RPG.GameCore.WaitCustomString",
          "CustomString": {
            "Value": "TalkSentence_201312420"
          }
        },
        {
          "$type": "RPG.GameCore.PlayTimeline",
          "TimelineName": "Story/Mission/1011201/Story10112010305.playable",
          "Type": "Story",
          "Parameters": []
        },
        {
          "$type": "RPG.GameCore.EndPerformance"
        }
      ]
    },
    {
      "TaskList": [
        {
          "$type": "RPG.GameCore.WaitCustomString",
          "CustomString": {
            "Value": "TalkSentence_201312418"
          }
        },
        {
          "$type": "RPG.GameCore.PlayTimeline",
          "TimelineName": "Story/Mission/1011201/Story10112010303.playable",
          "Type": "Story",
          "Parameters": []
        },
        {
          "$type": "RPG.GameCore.TriggerCustomString",
          "CustomString": {
            "Value": "TalkSentence_201312420"
          }
        }
      ]
    },
    {
      "TaskList": [
        {
          "$type": "RPG.GameCore.WaitCustomString",
          "CustomString": {
            "Value": "TalkSentence_201312419"
          }
        },
        {
          "$type": "RPG.GameCore.PlayTimeline",
          "TimelineName": "Story/Mission/1011201/Story10112010304.playable",
          "Type": "Story",
          "Parameters": []
        },
        {
          "$type": "RPG.GameCore.TriggerCustomString",
          "CustomString": {
            "Value": "TalkSentence_201312420"
          }
        }
      ]
    },
    {
      "TaskList": [
        {
          "$type": "RPG.GameCore.WaitPerformanceEnd"
        },
        {
          "$type": "RPG.GameCore.FinishLevelGraph"
        }
      ]
    }
  ]
}