{
  "OnInitSequece": [],
  "OnStartSequece": [
    {
      "TaskList": [
        {
          "$type": "RPG.GameCore.LevelPerformanceInitialize",
          "PerformanceType": "D",
          "AreaPrefabPath": "Story/Discussion/Mission/1031501/DS103150124.prefab",
          "CreateCharacterList": [
            {
              "CharacterUniqueName": "Gallagher_00_C00",
              "AvatarID": "NPC_Avatar_Male_Gallagher_00",
              "AreaName": "DS103150124.prefab"
            },
            {
              "CharacterUniqueName": "Mar_7th_00_C00",
              "AvatarID": "NPC_Avatar_Maid_Mar_7th_00",
              "AreaName": "DS103150124.prefab"
            },
            {
              "CharacterUniqueName": "Himeko_00_C00",
              "AvatarID": "NPC_Avatar_Lady_Himeko_00",
              "AreaName": "DS103150124.prefab"
            },
            {
              "CharacterUniqueName": "W3_Lady_Siobhan_C00",
              "AvatarID": "NPC_Full_W3_Lady_Siobhan",
              "AreaName": "DS103150124.prefab"
            },
            {
              "CharacterUniqueName": "PlayerBoy_00_C00",
              "AvatarID": "NPC_Avatar_Lad_PlayerBoy_00",
              "AreaName": "DS103150124.prefab"
            },
            {
              "CharacterUniqueName": "PlayerGirl_00_C00",
              "AvatarID": "NPC_Avatar_Miss_PlayerGirl_00",
              "AreaName": "DS103150124.prefab"
            }
          ],
          "CaptureNPCList": [],
          "HideNPC": true,
          "EntityVisiableList": [],
          "HideProp": true,
          "HideLocalPlayer": true,
          "StreamingSourcesInBlackMask": [],
          "StreamingSourcesAfterBlackMask": [],
          "MarkStreamingItems": []
        },
        {
          "$type": "RPG.GameCore.PlayTimeline",
          "TimelineName": "Story/Discussion/Mission/1031501/DS10315012401.playable",
          "Type": "Discussion"
        },
        {
          "$type": "RPG.GameCore.PlayOptionTalk",
          "OptionList": [
            {
              "$type": "RPG.GameCore.OptionTalkInfo",
              "TalkSentenceID": 103151548,
              "OptionIconType": "ChatContinueIcon",
              "TriggerCustomString": "TalkSentence_103152411"
            },
            {
              "$type": "RPG.GameCore.OptionTalkInfo",
              "TalkSentenceID": 103151549,
              "OptionIconType": "ChatContinueIcon",
              "TriggerCustomString": "TalkSentence_103152411"
            }
          ]
        }
      ]
    },
    {
      "TaskList": [
        {
          "$type": "RPG.GameCore.WaitCustomString",
          "CustomString": {
            "Value": "TalkSentence_103152411"
          }
        },
        {
          "$type": "RPG.GameCore.PlayTimeline",
          "TimelineName": "Story/Discussion/Mission/1031501/DS10315012402.playable",
          "Type": "Discussion",
          "Parameters": []
        },
        {
          "$type": "RPG.GameCore.EndPerformance"
        }
      ]
    },
    {
      "TaskList": [
        {
          "$type": "RPG.GameCore.WaitPerformanceEnd"
        },
        {
          "$type": "RPG.GameCore.FinishLevelGraph"
        }
      ]
    }
  ],
  "Type": "PerformanceD"
}