{
  "OnInitSequece": [],
  "OnStartSequece": [
    {
      "TaskList": [
        {
          "$type": "RPG.GameCore.LevelPerformanceInitialize",
          "PerformanceType": "D",
          "AreaPrefabPath": "Story/Discussion/Mission/1031501/DS103150117.prefab",
          "CreateCharacterList": [
            {
              "CharacterUniqueName": "Gallagher_00_C00",
              "AvatarID": "NPC_Avatar_Male_Gallagher_00",
              "AreaName": "DS103150117.prefab"
            },
            {
              "CharacterUniqueName": "Mar_7th_00_C00",
              "AvatarID": "NPC_Avatar_Maid_Mar_7th_00",
              "AreaName": "DS103150117.prefab"
            },
            {
              "CharacterUniqueName": "Himeko_00_C00",
              "AvatarID": "NPC_Avatar_Lady_Himeko_00",
              "AreaName": "DS103150117.prefab"
            },
            {
              "CharacterUniqueName": "PlayerBoy_00_C00",
              "AvatarID": "NPC_Avatar_Lad_PlayerBoy_00",
              "AreaName": "DS103150117.prefab"
            },
            {
              "CharacterUniqueName": "PlayerGirl_00_C00",
              "AvatarID": "NPC_Avatar_Miss_PlayerGirl_00",
              "AreaName": "DS103150117.prefab"
            }
          ],
          "CaptureNPCList": [],
          "EntityVisiableList": [],
          "HideMunicipalCrowd": false,
          "HideMunicipalPedestrian": false,
          "HideProp": true,
          "PropVisiableList": [],
          "HideLocalPlayer": true,
          "StreamingSourcesInBlackMask": [],
          "StreamingSourcesAfterBlackMask": [],
          "MarkStreamingItems": []
        },
        {
          "$type": "RPG.GameCore.PlayTimeline",
          "TimelineName": "Story/Discussion/Mission/1031501/DS10315011701.playable",
          "Type": "Discussion"
        },
        {
          "$type": "RPG.GameCore.PlayOptionTalk",
          "OptionList": [
            {
              "$type": "RPG.GameCore.OptionTalkInfo",
              "TalkSentenceID": 103151709,
              "OptionIconType": "ChatContinueIcon",
              "TriggerCustomString": "TalkSentence_103151711"
            },
            {
              "$type": "RPG.GameCore.OptionTalkInfo",
              "TalkSentenceID": 103151710,
              "OptionIconType": "ChatContinueIcon",
              "TriggerCustomString": "TalkSentence_103151711"
            }
          ]
        }
      ]
    },
    {
      "TaskList": [
        {
          "$type": "RPG.GameCore.WaitCustomString",
          "CustomString": {
            "Value": "TalkSentence_103151711"
          }
        },
        {
          "$type": "RPG.GameCore.PlayTimeline",
          "TimelineName": "Story/Discussion/Mission/1031501/DS10315011702.playable",
          "Type": "Discussion"
        },
        {
          "$type": "RPG.GameCore.EndPerformance"
        }
      ]
    },
    {
      "TaskList": [
        {
          "$type": "RPG.GameCore.WaitPerformanceEnd"
        },
        {
          "$type": "RPG.GameCore.FinishLevelGraph"
        }
      ]
    }
  ],
  "Type": "PerformanceD"
}