{
  "OnInitSequece": [],
  "OnStartSequece": [
    {
      "TaskList": [
        {
          "$type": "RPG.GameCore.LevelPerformanceInitialize",
          "PerformanceType": "C",
          "AreaPrefabPath": "Story/Mission/1020701/Story102070110.prefab",
          "CreateCharacterList": [
            {
              "CharacterUniqueName": "PlayerGirl_00_C00",
              "AvatarID": "NPC_Avatar_Miss_PlayerGirl_00",
              "AreaName": "Story102070110.prefab"
            },
            {
              "CharacterUniqueName": "PlayerBoy_00_C00",
              "AvatarID": "NPC_Avatar_Lad_PlayerBoy_00",
              "AreaName": "Story102070110.prefab"
            },
            {
              "CharacterUniqueName": "Mar_7th_00_C00",
              "AvatarID": "NPC_Avatar_Maid_Mar_7th_00",
              "AreaName": "Story102070110.prefab"
            },
            {
              "CharacterUniqueName": "Welt_00_C00",
              "AvatarID": "NPC_Avatar_Male_Welt_00",
              "AreaName": "Story102070110.prefab"
            },
            {
              "CharacterUniqueName": "W2_Lady_06_C00",
              "AvatarID": "NPC_W2_Lady_06",
              "AreaName": "Story102070110.prefab"
            },
            {
              "CharacterUniqueName": "W2_Male_08_C00",
              "AvatarID": "NPC_W2_Male_08",
              "AreaName": "Story102070110.prefab"
            },
            {
              "CharacterUniqueName": "W2_Lady_08_C00",
              "AvatarID": "NPC_W2_Lady_08",
              "AreaName": "Story102070110.prefab"
            },
            {
              "CharacterUniqueName": "Qingque_00_C00",
              "AvatarID": "NPC_Avatar_Girl_Qingque_00",
              "AreaName": "Story102070110.prefab"
            },
            {
              "CharacterUniqueName": "W2_Male_01_C00",
              "AvatarID": "NPC_W2_Male_01",
              "AreaName": "Story102070110.prefab"
            },
            {
              "CharacterUniqueName": "W2_Male_02_C00",
              "AvatarID": "NPC_W2_Male_02",
              "AreaName": "Story102070110.prefab"
            },
            {
              "CharacterUniqueName": "W2_Lady_11_C00",
              "AvatarID": "NPC_W2_Lady_11",
              "AreaName": "Story102070110.prefab"
            },
            {
              "CharacterUniqueName": "W2_Lady_23_C00",
              "AvatarID": "NPC_W2_Lady_23",
              "AreaName": "Story102070110.prefab"
            },
            {
              "CharacterUniqueName": "W2_Child_03_C00",
              "AvatarID": "NPC_W2_Child_03",
              "AreaName": "Story102070110.prefab"
            },
            {
              "CharacterUniqueName": "W2_Child_04_C00",
              "AvatarID": "NPC_W2_Child_04",
              "AreaName": "Story102070110.prefab"
            }
          ],
          "EntityVisiableList": [],
          "MarkStreamingItems": []
        },
        {
          "$type": "RPG.GameCore.PlayTimeline",
          "TimelineName": "Story/Mission/1020701/Story10207011001.playable",
          "Type": "Story",
          "Parameters": []
        },
        {
          "$type": "RPG.GameCore.PlayOptionTalk",
          "OptionList": [
            {
              "$type": "RPG.GameCore.OptionTalkInfo",
              "TalkSentenceID": 102021212,
              "OptionIconType": "ChatContinueIcon",
              "TriggerCustomString": "TalkSentence_102021215"
            },
            {
              "$type": "RPG.GameCore.OptionTalkInfo",
              "TalkSentenceID": 102021213,
              "OptionIconType": "ChatContinueIcon",
              "TriggerCustomString": "TalkSentence_102021215"
            },
            {
              "$type": "RPG.GameCore.OptionTalkInfo",
              "TalkSentenceID": 102021214,
              "OptionIconType": "ChatContinueIcon",
              "TriggerCustomString": "TalkSentence_102021215"
            }
          ]
        }
      ]
    },
    {
      "TaskList": [
        {
          "$type": "RPG.GameCore.WaitCustomString",
          "CustomString": {
            "Value": "TalkSentence_102021215"
          }
        },
        {
          "$type": "RPG.GameCore.PlayTimeline",
          "TimelineName": "Story/Mission/1020701/Story10207011002.playable",
          "Type": "Story",
          "Parameters": []
        },
        {
          "$type": "RPG.GameCore.EndPerformance"
        }
      ]
    },
    {
      "TaskList": [
        {
          "$type": "RPG.GameCore.WaitPerformanceEnd"
        },
        {
          "$type": "RPG.GameCore.FinishLevelGraph"
        }
      ]
    }
  ]
}