{
  "OnInitSequece": [],
  "OnStartSequece": [
    {
      "TaskList": [
        {
          "$type": "RPG.GameCore.CollectDataConditions",
          "TaskIDList": [],
          "MainMissionIDList": [],
          "PerformanceIDList": [],
          "PerformanceIDDsList": [],
          "CustomValueMainMissionIDList": [
            8022125
          ]
        },
        {
          "$type": "RPG.GameCore.LevelPerformanceInitialize",
          "PerformanceType": "D",
          "AreaPrefabPath": "Story/Discussion/Mission/8022125/DS802212503.prefab",
          "CreateCharacterList": [
            {
              "CharacterUniqueName": "W3_Child_16_C00",
              "AvatarID": "NPC_W3_Child_16",
              "AreaName": "DS802212503.prefab"
            },
            {
              "CharacterUniqueName": "PlayerBoy_00_C00",
              "AvatarID": "NPC_Avatar_Lad_PlayerBoy_00",
              "AreaName": "DS802212503.prefab"
            },
            {
              "CharacterUniqueName": "PlayerGirl_00_C00",
              "AvatarID": "NPC_Avatar_Miss_PlayerGirl_00",
              "AreaName": "DS802212503.prefab"
            }
          ],
          "CaptureNPCList": [],
          "HideNPC": true,
          "EntityVisiableList": [],
          "HideProp": true,
          "PropVisiableList": [],
          "HideLocalPlayer": true,
          "StreamingSourcesInBlackMask": [],
          "StreamingSourcesAfterBlackMask": [],
          "MarkStreamingItems": []
        },
        {
          "$type": "RPG.GameCore.PredicateTaskList",
          "Predicate": {
            "$type": "RPG.GameCore.ByCompareMissionCustomValue",
            "MainMissionID": 8022125,
            "MissionCustomValue": {
              "ValidValueParamList": [
                0,
                1
              ]
            },
            "EquationType": "Equal"
          },
          "SuccessTaskList": [
            {
              "$type": "RPG.GameCore.PlayTimeline",
              "TimelineName": "Story/Discussion/Mission/8022125/DS80221250301.playable",
              "Type": "Discussion",
              "Parameters": []
            },
            {
              "$type": "RPG.GameCore.TriggerCustomString",
              "CustomString": {
                "Value": "TalkSentence_8022136362"
              }
            }
          ],
          "FailedTaskList": [
            {
              "$type": "RPG.GameCore.PlayTimeline",
              "TimelineName": "Story/Discussion/Mission/8022125/DS80221250302.playable",
              "Type": "Discussion",
              "Parameters": []
            },
            {
              "$type": "RPG.GameCore.TriggerCustomString",
              "CustomString": {
                "Value": "TalkSentence_8022136362"
              }
            }
          ]
        }
      ]
    },
    {
      "TaskList": [
        {
          "$type": "RPG.GameCore.WaitCustomString",
          "CustomString": {
            "Value": "TalkSentence_802213639"
          }
        },
        {
          "$type": "RPG.GameCore.PlayTimeline",
          "TimelineName": "Story/Discussion/Mission/8022125/DS80221250304.playable",
          "Type": "Discussion",
          "Parameters": []
        },
        {
          "$type": "RPG.GameCore.EndPerformance"
        }
      ]
    },
    {
      "TaskList": [
        {
          "$type": "RPG.GameCore.WaitPerformanceEnd"
        },
        {
          "$type": "RPG.GameCore.FinishLevelGraph"
        }
      ]
    },
    {
      "TaskList": [
        {
          "$type": "RPG.GameCore.WaitCustomString",
          "CustomString": {
            "Value": "TalkSentence_8022136362"
          }
        },
        {
          "$type": "RPG.GameCore.PlayTimeline",
          "TimelineName": "Story/Discussion/Mission/8022125/DS80221250303.playable",
          "Type": "Discussion",
          "Parameters": []
        },
        {
          "$type": "RPG.GameCore.PlayOptionTalk",
          "OptionList": [
            {
              "$type": "RPG.GameCore.OptionTalkInfo",
              "TalkSentenceID": 802213638,
              "OptionIconType": "ChatContinueIcon",
              "TriggerCustomString": "TalkSentence_802213639"
            }
          ]
        }
      ]
    }
  ],
  "Type": "PerformanceD"
}