{
  "OnInitSequece": [],
  "OnStartSequece": [
    {
      "TaskList": [
        {
          "$type": "RPG.GameCore.LevelPerformanceInitialize",
          "PerformanceType": "C",
          "AreaPrefabPath": "Story/Mission/6020101/Story602010163.prefab",
          "MuteSFX": true,
          "CreateCharacterList": [],
          "EntityVisiableList": [],
          "PropVisiableList": [],
          "MarkStreamingItems": []
        },
        {
          "$type": "RPG.GameCore.PlayTimeline",
          "TimelineName": "Story/Mission/6020101/Story60201016301.playable",
          "Type": "Story",
          "Parameters": []
        },
        {
          "$type": "RPG.GameCore.SetAudioEmotionState",
          "StateName": "State_Sorrow",
          "SubMissionID": 602010119
        },
        {
          "$type": "RPG.GameCore.EndPerformance"
        }
      ]
    },
    {
      "TaskList": [
        {
          "$type": "RPG.GameCore.WaitPerformanceEnd"
        },
        {
          "$type": "RPG.GameCore.FinishLevelGraph"
        }
      ]
    }
  ]
}