{
  "OnInitSequece": [],
  "OnStartSequece": [
    {
      "TaskList": [
        {
          "$type": "RPG.GameCore.LevelPerformanceInitialize",
          "PerformanceType": "D",
          "AreaPrefabPath": "Story/Discussion/Mission/8003202/DS800325007.prefab",
          "CreateCharacterList": [
            {
              "CharacterUniqueName": "PlayerBoy_00_C00",
              "AvatarID": "NPC_Avatar_Lad_PlayerBoy_00",
              "AreaName": "DS800325007.prefab"
            },
            {
              "CharacterUniqueName": "PlayerGirl_00_C00",
              "AvatarID": "NPC_Avatar_Miss_PlayerGirl_00",
              "AreaName": "DS800325007.prefab"
            },
            {
              "CharacterUniqueName": "Yukong_00_C00",
              "AvatarID": "NPC_Avatar_Lady_Yukong_00",
              "AreaName": "DS800325007.prefab"
            },
            {
              "CharacterUniqueName": "W2_Male_70_C00",
              "AvatarID": "NPC_W2_Male_70",
              "AreaName": "DS800325007.prefab"
            },
            {
              "CharacterUniqueName": "table_01",
              "AvatarID": "Prop_W2_DiHengSi_Table_01",
              "AreaName": "DS800325007.prefab"
            }
          ],
          "CaptureNPCList": [],
          "HideNPC": true,
          "EntityVisiableList": [],
          "PropVisiableList": [],
          "StreamingSourcesInBlackMask": [],
          "StreamingSourcesAfterBlackMask": [],
          "MarkStreamingItems": []
        },
        {
          "$type": "RPG.GameCore.DebateInitialize",
          "TestimonyTimelinePath": "Story/Discussion/Mission/8003202/DS80032500701.playable",
          "TestimonySettingList": [
            {
              "TimelineClipName": "0",
              "CanAsk": true,
              "AskCustomString": "Ask0",
              "CanSubmitItem": true,
              "ItemIDList": [
                140255,
                140256,
                140257
              ],
              "SpecialItemList": [
                {
                  "ItemID": 140255,
                  "TriggerCustomString": "Fail2"
                }
              ],
              "ItemDefaultCustomString": "Fail"
            },
            {
              "Index": 1,
              "TimelineClipName": "1",
              "CanAsk": true,
              "AskCustomString": "Ask1",
              "CanSubmitItem": true,
              "ItemIDList": [
                140255,
                140256,
                140257
              ],
              "SpecialItemList": [
                {
                  "ItemID": 140255,
                  "TriggerCustomString": "Fail2"
                }
              ],
              "ItemDefaultCustomString": "Fail"
            },
            {
              "Index": 2,
              "TimelineClipName": "2",
              "CanAsk": true,
              "AskCustomString": "Ask2",
              "CanSubmitItem": true,
              "ItemIDList": [
                140255,
                140256,
                140257
              ],
              "SpecialItemList": [
                {
                  "ItemID": 140255,
                  "TriggerCustomString": "Fail2"
                }
              ],
              "ItemDefaultCustomString": "Fail"
            },
            {
              "Index": 3,
              "TimelineClipName": "3",
              "CanAsk": true,
              "AskCustomString": "Ask3",
              "CanSubmitItem": true,
              "ItemIDList": [
                140255,
                140256,
                140257
              ],
              "SpecialItemList": [
                {
                  "ItemID": 140255,
                  "TriggerCustomString": "Fail2"
                },
                {
                  "ItemID": 140257,
                  "TriggerCustomString": "Correct"
                }
              ],
              "ItemDefaultCustomString": "Fail"
            },
            {
              "Index": 4,
              "TestimonyType": "LastStatement",
              "TimelineClipName": "4",
              "LastToBeginTalkSentenceID": 800325736
            }
          ]
        }
      ]
    },
    {
      "IsLoop": true,
      "TaskList": [
        {
          "$type": "RPG.GameCore.WaitCustomString",
          "CustomString": {
            "Value": "Ask0"
          }
        },
        {
          "$type": "RPG.GameCore.PlayTimeline",
          "TimelineName": "Story/Discussion/Mission/8003202/DS80032500702.playable",
          "Type": "Discussion",
          "Parameters": []
        },
        {
          "$type": "RPG.GameCore.DebateReturnTestimony"
        }
      ]
    },
    {
      "IsLoop": true,
      "TaskList": [
        {
          "$type": "RPG.GameCore.WaitCustomString",
          "CustomString": {
            "Value": "Ask1"
          }
        },
        {
          "$type": "RPG.GameCore.PlayTimeline",
          "TimelineName": "Story/Discussion/Mission/8003202/DS80032500703.playable",
          "Type": "Discussion",
          "Parameters": []
        },
        {
          "$type": "RPG.GameCore.DebateReturnTestimony"
        }
      ]
    },
    {
      "IsLoop": true,
      "TaskList": [
        {
          "$type": "RPG.GameCore.WaitCustomString",
          "CustomString": {
            "Value": "Ask2"
          }
        },
        {
          "$type": "RPG.GameCore.PlayTimeline",
          "TimelineName": "Story/Discussion/Mission/8003202/DS80032500704.playable",
          "Type": "Discussion",
          "Parameters": []
        },
        {
          "$type": "RPG.GameCore.DebateReturnTestimony"
        }
      ]
    },
    {
      "IsLoop": true,
      "TaskList": [
        {
          "$type": "RPG.GameCore.WaitCustomString",
          "CustomString": {
            "Value": "Ask3"
          }
        },
        {
          "$type": "RPG.GameCore.PlayTimeline",
          "TimelineName": "Story/Discussion/Mission/8003202/DS80032500705.playable",
          "Type": "Discussion"
        },
        {
          "$type": "RPG.GameCore.DebateReturnTestimony"
        }
      ]
    },
    {
      "IsLoop": true,
      "TaskList": [
        {
          "$type": "RPG.GameCore.WaitCustomString",
          "CustomString": {
            "Value": "Correct"
          }
        },
        {
          "$type": "RPG.GameCore.PlayTimeline",
          "TimelineName": "Story/Discussion/Mission/8003202/DS80032500706.playable",
          "Type": "Discussion",
          "Parameters": []
        },
        {
          "$type": "RPG.GameCore.PlayOptionTalk",
          "OptionList": [
            {
              "$type": "RPG.GameCore.OptionTalkInfo",
              "TalkSentenceID": 800322731,
              "OptionIconType": "ChatContinueIcon",
              "TriggerCustomString": "Succ"
            },
            {
              "$type": "RPG.GameCore.OptionTalkInfo",
              "TalkSentenceID": 800322732,
              "OptionIconType": "ChatContinueIcon",
              "TriggerCustomString": "Succ"
            }
          ]
        }
      ]
    },
    {
      "IsLoop": true,
      "TaskList": [
        {
          "$type": "RPG.GameCore.WaitCustomString",
          "CustomString": {
            "Value": "Fail2"
          }
        },
        {
          "$type": "RPG.GameCore.PlayTimeline",
          "TimelineName": "Story/Discussion/Mission/8003202/DS80032500708.playable",
          "Type": "Discussion",
          "Parameters": []
        },
        {
          "$type": "RPG.GameCore.DebateReturnTestimony"
        }
      ]
    },
    {
      "IsLoop": true,
      "TaskList": [
        {
          "$type": "RPG.GameCore.WaitCustomString",
          "CustomString": {
            "Value": "Fail"
          }
        },
        {
          "$type": "RPG.GameCore.PlayTimeline",
          "TimelineName": "Story/Discussion/Mission/8003202/DS80032500709.playable",
          "Type": "Discussion",
          "Parameters": []
        },
        {
          "$type": "RPG.GameCore.DebateReturnTestimony"
        }
      ]
    },
    {
      "IsLoop": true,
      "TaskList": [
        {
          "$type": "RPG.GameCore.WaitCustomString",
          "CustomString": {
            "Value": "Succ"
          }
        },
        {
          "$type": "RPG.GameCore.PlayTimeline",
          "TimelineName": "Story/Discussion/Mission/8003202/DS80032500707.playable",
          "Type": "Discussion",
          "Parameters": []
        },
        {
          "$type": "RPG.GameCore.EndPerformance"
        }
      ]
    },
    {
      "TaskList": [
        {
          "$type": "RPG.GameCore.WaitPerformanceEnd"
        },
        {
          "$type": "RPG.GameCore.FinishLevelGraph"
        }
      ]
    }
  ]
}