{
  "OnInitSequece": [],
  "OnStartSequece": [
    {
      "TaskList": [
        {
          "$type": "RPG.GameCore.LevelPerformanceInitialize",
          "PerformanceType": "D",
          "AreaPrefabPath": "Story/Discussion/Mission/8021104/DS802110421.prefab",
          "CreateCharacterList": [
            {
              "CharacterUniqueName": "PlayerBoy_00_C00",
              "AvatarID": "NPC_Avatar_Lad_PlayerBoy_00",
              "AreaName": "DS802110421.prefab"
            },
            {
              "CharacterUniqueName": "PlayerGirl_00_C00",
              "AvatarID": "NPC_Avatar_Miss_PlayerGirl_00",
              "AreaName": "DS802110421.prefab"
            },
            {
              "CharacterUniqueName": "W3_Lady_Siobhan_C00",
              "AvatarID": "NPC_Full_W3_Lady_Siobhan",
              "AreaName": "DS802110421.prefab"
            }
          ],
          "CaptureNPCList": [],
          "HideNPC": true,
          "HideProp": true,
          "HideLocalPlayer": true
        },
        {
          "$type": "RPG.GameCore.PerformanceTransition",
          "SwitchInTime": 0,
          "CreateNpcList": [],
          "CaptureNpcList": [],
          "DestroyNpcList": [],
          "CreateProp": {
            "TaskEnabled": false
          },
          "DestroyProp": {
            "TargetType": {
              "$type": "RPG.GameCore.TargetFetchAdvPropEx"
            },
            "TaskEnabled": false
          },
          "AdvCreateGroupEntity": {
            "TaskEnabled": false
          },
          "AdvDestroyGroupEntity": {
            "InstanceIDList": [],
            "TaskEnabled": false
          },
          "ActiveVirtualCamera": {
            "TaskEnabled": false
          },
          "ActiveTemplateVirtualCamera": {
            "TaskEnabled": false
          },
          "SwitchCharacterAnchor": {
            "TaskEnabled": false
          },
          "AdvNpcFaceToPlayer": {
            "SteerImmediately": true,
            "FinishImmadiate": true,
            "TaskEnabled": false
          }
        },
        {
          "$type": "RPG.GameCore.PlayTimeline",
          "TimelineName": "Story/Discussion/Mission/8021104/DS80211042101.playable",
          "Type": "Discussion"
        },
        {
          "$type": "RPG.GameCore.PlayOptionTalk",
          "OptionList": [
            {
              "$type": "RPG.GameCore.OptionTalkInfo",
              "TalkSentenceID": 821204523,
              "OptionIconType": "ChatContinueIcon",
              "TriggerCustomString": "TalkSentence_821204526"
            },
            {
              "$type": "RPG.GameCore.OptionTalkInfo",
              "TalkSentenceID": 821204524,
              "OptionIconType": "ChatContinueIcon",
              "TriggerCustomString": "TalkSentence_821204525"
            }
          ]
        }
      ]
    },
    {
      "TaskList": [
        {
          "$type": "RPG.GameCore.WaitCustomString",
          "CustomString": {
            "Value": "TalkSentence_821204525"
          }
        },
        {
          "$type": "RPG.GameCore.PlayTimeline",
          "TimelineName": "Story/Discussion/Mission/8021104/DS80211042102.playable",
          "Type": "Discussion"
        },
        {
          "$type": "RPG.GameCore.TriggerCustomString",
          "CustomString": {
            "Value": "TalkSentence_821204526"
          }
        }
      ]
    },
    {
      "TaskList": [
        {
          "$type": "RPG.GameCore.WaitCustomString",
          "CustomString": {
            "Value": "TalkSentence_821204526"
          }
        },
        {
          "$type": "RPG.GameCore.PlayTimeline",
          "TimelineName": "Story/Discussion/Mission/8021104/DS80211042103.playable",
          "Type": "Discussion",
          "Parameters": []
        },
        {
          "$type": "RPG.GameCore.PerformanceTransition",
          "SwitchOutTime": 0,
          "CreateNpcList": [],
          "CaptureNpcList": [],
          "DestroyNpcList": [],
          "CreateProp": {
            "TaskEnabled": false
          },
          "DestroyProp": {
            "TargetType": {
              "$type": "RPG.GameCore.TargetFetchAdvPropEx"
            },
            "TaskEnabled": false
          },
          "AdvCreateGroupEntity": {
            "TaskEnabled": false
          },
          "AdvDestroyGroupEntity": {
            "InstanceIDList": [],
            "TaskEnabled": false
          },
          "ActiveVirtualCamera": {
            "TaskEnabled": false
          },
          "ActiveTemplateVirtualCamera": {
            "TaskEnabled": false
          },
          "SwitchCharacterAnchor": {
            "TaskEnabled": false
          },
          "AdvNpcFaceToPlayer": {
            "SteerImmediately": true,
            "FinishImmadiate": true,
            "TaskEnabled": false
          }
        },
        {
          "$type": "RPG.GameCore.EndPerformance"
        }
      ]
    },
    {
      "TaskList": [
        {
          "$type": "RPG.GameCore.WaitPerformanceEnd"
        },
        {
          "$type": "RPG.GameCore.FinishLevelGraph"
        }
      ]
    }
  ],
  "Type": "PerformanceD"
}