{
  "OnStartSequece": [
    {
      "TaskList": [
        {
          "$type": "RPG.GameCore.LevelPerformanceInitialize",
          "PerformanceType": "D",
          "AreaPrefabPath": "Story/Discussion/Mission/1032901/DS103290145.prefab",
          "CreateCharacterList": [
            {
              "CharacterUniqueName": "Mar_7th_00_C00",
              "AvatarID": "NPC_Avatar_Maid_Mar_7th_00",
              "AreaName": "DS103290145.prefab"
            },
            {
              "CharacterUniqueName": "Himeko_00_C00",
              "AvatarID": "NPC_Avatar_Lady_Himeko_00",
              "AreaName": "DS103290145.prefab"
            },
            {
              "CharacterUniqueName": "PlayerGirl_00_C00",
              "AvatarID": "NPC_Avatar_Miss_PlayerGirl_00",
              "AreaName": "DS103290145.prefab"
            },
            {
              "CharacterUniqueName": "PlayerBoy_00_C00",
              "AvatarID": "NPC_Avatar_Lad_PlayerBoy_00",
              "AreaName": "DS103290145.prefab"
            }
          ],
          "CaptureNPCList": [],
          "HideNPC": true,
          "HideProp": true,
          "HideLocalPlayer": true
        },
        {
          "$type": "RPG.GameCore.PlayTimeline",
          "TimelineName": "Story/Discussion/Mission/1032901/DS10329014501.playable",
          "Type": "Discussion"
        },
        {
          "$type": "RPG.GameCore.EndPerformance"
        }
      ]
    },
    {
      "TaskList": [
        {
          "$type": "RPG.GameCore.WaitPerformanceEnd"
        },
        {
          "$type": "RPG.GameCore.FinishLevelGraph"
        }
      ]
    }
  ],
  "Type": "PerformanceD"
}